vault/proyectos/lab4_1/Informe_de_Laboratorio_Metrología_Exp4/NewDirectory1/Newfile21hinv.csv

X,CH1,CH2,Start,Increment,
Sequence,Volt,Volt,-1.400000e-02,2.000000e-05,
0,-9.737500e+00,-2.475000e-01,
1,-9.559375e+00,-3.403125e-01,
2,-9.737500e+00,-2.784375e-01,
3,-9.500000e+00,-4.021875e-01,
4,-9.500000e+00,-3.093750e-01,
5,-9.678124e+00,-4.331250e-01,
6,-9.678124e+00,-3.403125e-01,
7,-9.440625e+00,-4.640625e-01,
8,-9.618750e+00,-3.712500e-01,
9,-9.440625e+00,-5.259375e-01,
10,-9.618750e+00,-4.021875e-01,
11,-9.381249e+00,-5.568750e-01,
12,-9.559375e+00,-4.331250e-01,
13,-9.381249e+00,-5.878125e-01,
14,-9.559375e+00,-4.950000e-01,
15,-9.321875e+00,-6.187500e-01,
16,-9.500000e+00,-5.259375e-01,
17,-9.321875e+00,-6.496875e-01,
18,-9.500000e+00,-5.878125e-01,
19,-9.262500e+00,-7.115625e-01,
20,-9.500000e+00,-6.187500e-01,
21,-9.262500e+00,-7.425000e-01,
22,-9.440625e+00,-6.496875e-01,
23,-9.203125e+00,-7.734375e-01,
24,-9.381249e+00,-6.806250e-01,
25,-9.203125e+00,-8.043750e-01,
26,-9.321875e+00,-7.115625e-01,
27,-9.143750e+00,-8.662500e-01,
28,-9.321875e+00,-7.425000e-01,
29,-9.084374e+00,-8.971875e-01,
30,-9.262500e+00,-8.043750e-01,
31,-9.084374e+00,-9.281250e-01,
32,-9.262500e+00,-8.353125e-01,
33,-9.025000e+00,-9.590625e-01,
34,-9.025000e+00,-8.662500e-01,
35,-9.262500e+00,-9.900000e-01,
36,-9.203125e+00,-8.971875e-01,
37,-8.965625e+00,-1.051875e+00,
38,-9.143750e+00,-9.281250e-01,
39,-8.906250e+00,-1.082813e+00,
40,-9.084374e+00,-9.590625e-01,
41,-8.906250e+00,-1.113750e+00,
42,-9.084374e+00,-1.020938e+00,
43,-8.846875e+00,-1.144688e+00,
44,-9.025000e+00,-1.051875e+00,
45,-8.787499e+00,-1.175625e+00,
46,-8.965625e+00,-1.082813e+00,
47,-8.787499e+00,-1.206563e+00,
48,-8.728125e+00,-1.113750e+00,
49,-8.965625e+00,-1.237500e+00,
50,-8.906250e+00,-1.144688e+00,
51,-8.668750e+00,-1.268438e+00,
52,-8.846875e+00,-1.175625e+00,
53,-8.609375e+00,-1.299375e+00,
54,-8.787499e+00,-1.206563e+00,
55,-8.550000e+00,-1.330312e+00,
56,-8.787499e+00,-1.237500e+00,
57,-8.550000e+00,-1.361250e+00,
58,-8.728125e+00,-1.299375e+00,
59,-8.490624e+00,-1.423125e+00,
60,-8.668750e+00,-1.330312e+00,
61,-8.431250e+00,-1.454062e+00,
62,-8.609375e+00,-1.361250e+00,
63,-8.371875e+00,-1.485000e+00,
64,-8.550000e+00,-1.392187e+00,
65,-8.312500e+00,-1.515938e+00,
66,-8.490624e+00,-1.423125e+00,
67,-8.312500e+00,-1.546875e+00,
68,-8.431250e+00,-1.454062e+00,
69,-8.193749e+00,-1.577813e+00,
70,-8.431250e+00,-1.485000e+00,
71,-8.193749e+00,-1.608750e+00,
72,-8.371875e+00,-1.515938e+00,
73,-8.134375e+00,-1.639688e+00,
74,-8.312500e+00,-1.546875e+00,
75,-8.075000e+00,-1.670625e+00,
76,-8.253125e+00,-1.577813e+00,
77,-8.015625e+00,-1.701563e+00,
78,-8.193749e+00,-1.608750e+00,
79,-7.956250e+00,-1.732500e+00,
80,-8.134375e+00,-1.639688e+00,
81,-7.896875e+00,-1.763438e+00,
82,-8.075000e+00,-1.670625e+00,
83,-7.837500e+00,-1.794375e+00,
84,-8.015625e+00,-1.701563e+00,
85,-7.778125e+00,-1.825312e+00,
86,-7.956250e+00,-1.732500e+00,
87,-7.718750e+00,-1.856250e+00,
88,-7.896875e+00,-1.763438e+00,
89,-7.659375e+00,-1.887187e+00,
90,-7.837500e+00,-1.794375e+00,
91,-7.600000e+00,-1.918125e+00,
92,-7.778125e+00,-1.825312e+00,
93,-7.540625e+00,-1.949062e+00,
94,-7.718750e+00,-1.856250e+00,
95,-7.481250e+00,-1.980000e+00,
96,-7.659375e+00,-1.887187e+00,
97,-7.421875e+00,-2.010937e+00,
98,-7.600000e+00,-1.918125e+00,
99,-7.362500e+00,-2.041875e+00,
100,-7.540625e+00,-1.949062e+00,
101,-7.303125e+00,-2.072813e+00,
102,-7.481250e+00,-1.980000e+00,
103,-7.243750e+00,-2.103750e+00,
104,-7.421875e+00,-2.010937e+00,
105,-7.184375e+00,-2.134687e+00,
106,-7.362500e+00,-2.041875e+00,
107,-7.125000e+00,-2.134687e+00,
108,-7.303125e+00,-2.165625e+00,
109,-7.065625e+00,-2.041875e+00,
110,-7.243750e+00,-2.196563e+00,
111,-7.006250e+00,-2.072813e+00,
112,-7.184375e+00,-2.103750e+00,
113,-6.946875e+00,-2.227500e+00,
114,-7.125000e+00,-2.134687e+00,
115,-6.887500e+00,-2.258438e+00,
116,-7.065625e+00,-2.165625e+00,
117,-6.828125e+00,-2.289375e+00,
118,-7.006250e+00,-2.196563e+00,
119,-6.709375e+00,-2.320313e+00,
120,-6.887500e+00,-2.227500e+00,
121,-6.650000e+00,-2.351250e+00,
122,-6.828125e+00,-2.258438e+00,
123,-6.590625e+00,-2.351250e+00,
124,-6.768750e+00,-2.258438e+00,
125,-6.531250e+00,-2.382188e+00,
126,-6.709375e+00,-2.289375e+00,
127,-6.471875e+00,-2.413125e+00,
128,-6.650000e+00,-2.320313e+00,
129,-6.412500e+00,-2.413125e+00,
130,-6.590625e+00,-2.351250e+00,
131,-6.353125e+00,-2.444062e+00,
132,-6.531250e+00,-2.351250e+00,
133,-6.234375e+00,-2.475000e+00,
134,-6.471875e+00,-2.382188e+00,
135,-6.175000e+00,-2.505938e+00,
136,-6.353125e+00,-2.413125e+00,
137,-6.115625e+00,-2.505938e+00,
138,-6.293750e+00,-2.444062e+00,
139,-6.056250e+00,-2.536875e+00,
140,-6.234375e+00,-2.444062e+00,
141,-5.996875e+00,-2.567812e+00,
142,-6.175000e+00,-2.475000e+00,
143,-5.878125e+00,-2.598750e+00,
144,-6.115625e+00,-2.505938e+00,
145,-5.878125e+00,-2.598750e+00,
146,-5.996875e+00,-2.505938e+00,
147,-5.759375e+00,-2.629688e+00,
148,-5.937500e+00,-2.536875e+00,
149,-5.700000e+00,-2.660625e+00,
150,-5.878125e+00,-2.567812e+00,
151,-5.640625e+00,-2.660625e+00,
152,-5.759375e+00,-2.567812e+00,
153,-5.521875e+00,-2.691562e+00,
154,-5.700000e+00,-2.598750e+00,
155,-5.462500e+00,-2.722500e+00,
156,-5.640625e+00,-2.598750e+00,
157,-5.403125e+00,-2.722500e+00,
158,-5.581250e+00,-2.629688e+00,
159,-5.343750e+00,-2.753438e+00,
160,-5.521875e+00,-2.660625e+00,
161,-5.284375e+00,-2.753438e+00,
162,-5.403125e+00,-2.660625e+00,
163,-5.165625e+00,-2.753438e+00,
164,-5.343750e+00,-2.691562e+00,
165,-5.106250e+00,-2.784375e+00,
166,-5.284375e+00,-2.691562e+00,
167,-5.046875e+00,-2.815313e+00,
168,-5.225000e+00,-2.722500e+00,
169,-4.987500e+00,-2.815313e+00,
170,-5.106250e+00,-2.722500e+00,
171,-4.868750e+00,-2.846250e+00,
172,-5.046875e+00,-2.753438e+00,
173,-4.809375e+00,-2.846250e+00,
174,-4.987500e+00,-2.846250e+00,
175,-4.750000e+00,-2.753438e+00,
176,-4.868750e+00,-2.784375e+00,
177,-4.690625e+00,-2.877187e+00,
178,-4.809375e+00,-2.784375e+00,
179,-4.571875e+00,-2.877187e+00,
180,-4.750000e+00,-2.784375e+00,
181,-4.512500e+00,-2.908125e+00,
182,-4.690625e+00,-2.815313e+00,
183,-4.453125e+00,-2.908125e+00,
184,-4.631250e+00,-2.908125e+00,
185,-4.393750e+00,-2.815313e+00,
186,-4.512500e+00,-2.939063e+00,
187,-4.275000e+00,-2.815313e+00,
188,-4.453125e+00,-2.846250e+00,
189,-4.215625e+00,-2.939063e+00,
190,-4.334375e+00,-2.846250e+00,
191,-4.096875e+00,-2.970000e+00,
192,-4.275000e+00,-2.970000e+00,
193,-4.037500e+00,-2.846250e+00,
194,-4.215625e+00,-2.970000e+00,
195,-3.978125e+00,-2.877187e+00,
196,-4.156250e+00,-2.877187e+00,
197,-3.918750e+00,-3.000937e+00,
198,-4.096875e+00,-3.000937e+00,
199,-3.859375e+00,-2.877187e+00,
200,-3.978125e+00,-2.908125e+00,
201,-3.740625e+00,-3.000937e+00,
202,-3.918750e+00,-2.908125e+00,
203,-3.681250e+00,-3.031875e+00,
204,-3.859375e+00,-2.908125e+00,
205,-3.621875e+00,-3.031875e+00,
206,-3.800000e+00,-2.939063e+00,
207,-3.503125e+00,-3.031875e+00,
208,-3.681250e+00,-3.031875e+00,
209,-3.443750e+00,-2.939063e+00,
210,-3.562500e+00,-2.939063e+00,
211,-3.384375e+00,-3.031875e+00,
212,-3.503125e+00,-3.031875e+00,
213,-3.325000e+00,-2.939063e+00,
214,-3.443750e+00,-2.939063e+00,
215,-3.206250e+00,-3.062813e+00,
216,-3.384375e+00,-3.062813e+00,
217,-3.146875e+00,-2.939063e+00,
218,-3.325000e+00,-2.970000e+00,
219,-3.087500e+00,-3.062813e+00,
220,-3.206250e+00,-2.970000e+00,
221,-2.968750e+00,-3.062813e+00,
222,-3.146875e+00,-3.062813e+00,
223,-2.909375e+00,-2.970000e+00,
224,-3.087500e+00,-3.062813e+00,
225,-2.850000e+00,-2.970000e+00,
226,-2.968750e+00,-3.062813e+00,
227,-2.731250e+00,-2.970000e+00,
228,-2.909375e+00,-3.062813e+00,
229,-2.671875e+00,-2.970000e+00,
230,-2.850000e+00,-2.970000e+00,
231,-2.612500e+00,-3.093750e+00,
232,-2.790625e+00,-3.062813e+00,
233,-2.553125e+00,-2.970000e+00,
234,-2.731250e+00,-2.970000e+00,
235,-2.434375e+00,-3.093750e+00,
236,-2.612500e+00,-3.062813e+00,
237,-2.375000e+00,-2.970000e+00,
238,-2.553125e+00,-3.062813e+00,
239,-2.315625e+00,-2.970000e+00,
240,-2.493750e+00,-3.062813e+00,
241,-2.256250e+00,-2.970000e+00,
242,-2.434375e+00,-3.062813e+00,
243,-2.196875e+00,-2.970000e+00,
244,-2.375000e+00,-3.062813e+00,
245,-2.137500e+00,-2.970000e+00,
246,-2.256250e+00,-3.062813e+00,
247,-2.018750e+00,-2.970000e+00,
248,-2.196875e+00,-3.062813e+00,
249,-1.959375e+00,-2.970000e+00,
250,-2.137500e+00,-3.062813e+00,
251,-1.900000e+00,-2.970000e+00,
252,-2.018750e+00,-3.062813e+00,
253,-1.840625e+00,-2.939063e+00,
254,-2.018750e+00,-3.062813e+00,
255,-1.781250e+00,-2.939063e+00,
256,-1.959375e+00,-3.062813e+00,
257,-1.662500e+00,-2.939063e+00,
258,-1.840625e+00,-2.939063e+00,
259,-1.603125e+00,-3.062813e+00,
260,-1.781250e+00,-3.031875e+00,
261,-1.543750e+00,-2.939063e+00,
262,-1.721875e+00,-3.031875e+00,
263,-1.484375e+00,-2.939063e+00,
264,-1.662500e+00,-3.031875e+00,
265,-1.365625e+00,-2.908125e+00,
266,-1.543750e+00,-3.031875e+00,
267,-1.306250e+00,-2.908125e+00,
268,-1.484375e+00,-3.000937e+00,
269,-1.246875e+00,-2.908125e+00,
270,-1.425000e+00,-3.000937e+00,
271,-1.187500e+00,-2.908125e+00,
272,-1.128125e+00,-3.000937e+00,
273,-1.365625e+00,-2.877187e+00,
274,-1.306250e+00,-3.000937e+00,
275,-1.009375e+00,-2.877187e+00,
276,-1.187500e+00,-2.970000e+00,
277,-9.500000e-01,-2.877187e+00,
278,-1.187500e+00,-2.877187e+00,
279,-8.906250e-01,-2.970000e+00,
280,-1.068750e+00,-2.970000e+00,
281,-8.312500e-01,-2.846250e+00,
282,-1.009375e+00,-2.939063e+00,
283,-7.718750e-01,-2.846250e+00,
284,-9.500000e-01,-2.939063e+00,
285,-7.125000e-01,-2.815313e+00,
286,-8.906250e-01,-2.908125e+00,
287,-6.531250e-01,-2.815313e+00,
288,-5.937500e-01,-2.815313e+00,
289,-8.312500e-01,-2.908125e+00,
290,-7.718750e-01,-2.908125e+00,
291,-5.343750e-01,-2.784375e+00,
292,-7.125000e-01,-2.877187e+00,
293,-4.750000e-01,-2.784375e+00,
294,-5.937500e-01,-2.784375e+00,
295,-4.156250e-01,-2.877187e+00,
296,-5.343750e-01,-2.846250e+00,
297,-2.968750e-01,-2.753438e+00,
298,-5.343750e-01,-2.846250e+00,
299,-2.375000e-01,-2.753438e+00,
300,-4.750000e-01,-2.846250e+00,
301,-2.375000e-01,-2.722500e+00,
302,-4.156250e-01,-2.815313e+00,
303,-1.187500e-01,-2.722500e+00,
304,-3.562500e-01,-2.815313e+00,
305,-5.937500e-02,-2.691562e+00,
306,-2.968750e-01,-2.784375e+00,
307,0.000000e+00,-2.691562e+00,
308,-2.375000e-01,-2.660625e+00,
309,5.937500e-02,-2.784375e+00,
310,-1.781250e-01,-2.753438e+00,
311,1.187500e-01,-2.660625e+00,
312,-1.187500e-01,-2.629688e+00,
313,1.781250e-01,-2.753438e+00,
314,-5.937500e-02,-2.629688e+00,
315,1.781250e-01,-2.722500e+00,
316,0.000000e+00,-2.691562e+00,
317,2.375000e-01,-2.598750e+00,
318,5.937500e-02,-2.691562e+00,
319,2.968750e-01,-2.567812e+00,
320,1.187500e-01,-2.660625e+00,
321,3.562500e-01,-2.536875e+00,
322,1.781250e-01,-2.660625e+00,
323,4.156250e-01,-2.536875e+00,
324,2.375000e-01,-2.629688e+00,
325,4.750000e-01,-2.505938e+00,
326,2.968750e-01,-2.598750e+00,
327,5.343750e-01,-2.505938e+00,
328,3.562500e-01,-2.598750e+00,
329,5.937500e-01,-2.475000e+00,
330,4.156250e-01,-2.567812e+00,
331,6.531250e-01,-2.444062e+00,
332,4.156250e-01,-2.536875e+00,
333,7.125000e-01,-2.444062e+00,
334,4.750000e-01,-2.413125e+00,
335,7.718750e-01,-2.536875e+00,
336,5.343750e-01,-2.505938e+00,
337,8.312500e-01,-2.382188e+00,
338,5.937500e-01,-2.475000e+00,
339,8.906250e-01,-2.382188e+00,
340,6.531250e-01,-2.444062e+00,
341,8.906250e-01,-2.351250e+00,
342,7.125000e-01,-2.444062e+00,
343,9.500000e-01,-2.320313e+00,
344,7.718750e-01,-2.413125e+00,
345,1.009375e+00,-2.289375e+00,
346,8.312500e-01,-2.382188e+00,
347,1.068750e+00,-2.289375e+00,
348,8.312500e-01,-2.351250e+00,
349,1.068750e+00,-2.258438e+00,
350,8.906250e-01,-2.351250e+00,
351,1.128125e+00,-2.227500e+00,
352,9.500000e-01,-2.320313e+00,
353,1.187500e+00,-2.196563e+00,
354,1.187500e+00,-2.165625e+00,
355,9.500000e-01,-2.289375e+00,
356,1.009375e+00,-2.258438e+00,
357,1.246875e+00,-2.134687e+00,
358,1.068750e+00,-2.227500e+00,
359,1.306250e+00,-2.103750e+00,
360,1.128125e+00,-2.196563e+00,
361,1.306250e+00,-2.072813e+00,
362,1.128125e+00,-2.165625e+00,
363,1.365625e+00,-2.041875e+00,
364,1.187500e+00,-2.165625e+00,
365,1.425000e+00,-2.010937e+00,
366,1.425000e+00,-2.134687e+00,
367,1.187500e+00,-2.010937e+00,
368,1.246875e+00,-2.103750e+00,
369,1.484375e+00,-1.980000e+00,
370,1.306250e+00,-2.072813e+00,
371,1.543750e+00,-1.949062e+00,
372,1.543750e+00,-2.041875e+00,
373,1.306250e+00,-1.918125e+00,
374,1.365625e+00,-2.010937e+00,
375,1.603125e+00,-1.887187e+00,
376,1.603125e+00,-1.980000e+00,
377,1.365625e+00,-1.856250e+00,
378,1.425000e+00,-1.949062e+00,
379,1.662500e+00,-1.825312e+00,
380,1.662500e+00,-1.918125e+00,
381,1.425000e+00,-1.794375e+00,
382,1.484375e+00,-1.918125e+00,
383,1.721875e+00,-1.763438e+00,
384,1.543750e+00,-1.856250e+00,
385,1.721875e+00,-1.763438e+00,
386,1.543750e+00,-1.825312e+00,
387,1.781250e+00,-1.701563e+00,
388,1.781250e+00,-1.794375e+00,
389,1.543750e+00,-1.670625e+00,
390,1.603125e+00,-1.763438e+00,
391,1.840625e+00,-1.639688e+00,
392,1.840625e+00,-1.732500e+00,
393,1.603125e+00,-1.608750e+00,
394,1.662500e+00,-1.701563e+00,
395,1.900000e+00,-1.577813e+00,
396,1.662500e+00,-1.670625e+00,
397,1.900000e+00,-1.546875e+00,
398,1.721875e+00,-1.639688e+00,
399,1.900000e+00,-1.515938e+00,
400,1.721875e+00,-1.608750e+00,
401,1.959375e+00,-1.485000e+00,
402,1.959375e+00,-1.577813e+00,
403,1.721875e+00,-1.454062e+00,
404,1.781250e+00,-1.546875e+00,
405,2.018750e+00,-1.423125e+00,
406,1.781250e+00,-1.515938e+00,
407,2.018750e+00,-1.392187e+00,
408,1.840625e+00,-1.485000e+00,
409,2.018750e+00,-1.361250e+00,
410,2.018750e+00,-1.454062e+00,
411,1.840625e+00,-1.330312e+00,
412,1.840625e+00,-1.423125e+00,
413,2.078125e+00,-1.299375e+00,
414,2.078125e+00,-1.392187e+00,
415,1.840625e+00,-1.268438e+00,
416,1.900000e+00,-1.361250e+00,
417,2.078125e+00,-1.237500e+00,
418,1.900000e+00,-1.299375e+00,
419,2.137500e+00,-1.175625e+00,
420,1.900000e+00,-1.268438e+00,
421,2.137500e+00,-1.175625e+00,
422,2.137500e+00,-1.237500e+00,
423,1.900000e+00,-1.113750e+00,
424,1.959375e+00,-1.206563e+00,
425,2.137500e+00,-1.082813e+00,
426,2.137500e+00,-1.175625e+00,
427,1.959375e+00,-1.051875e+00,
428,1.959375e+00,-1.144688e+00,
429,2.196875e+00,-1.020938e+00,
430,1.959375e+00,-1.113750e+00,
431,2.196875e+00,-9.590625e-01,
432,1.959375e+00,-1.051875e+00,
433,2.196875e+00,-9.281250e-01,
434,2.196875e+00,-1.020938e+00,
435,1.959375e+00,-8.971875e-01,
436,2.018750e+00,-9.900000e-01,
437,2.196875e+00,-8.662500e-01,
438,2.196875e+00,-9.590625e-01,
439,1.959375e+00,-8.353125e-01,
440,2.018750e+00,-9.281250e-01,
441,2.196875e+00,-7.734375e-01,
442,2.196875e+00,-8.971875e-01,
443,2.018750e+00,-7.734375e-01,
444,2.196875e+00,-8.353125e-01,
445,2.018750e+00,-7.115625e-01,
446,2.196875e+00,-8.043750e-01,
447,2.018750e+00,-6.806250e-01,
448,2.196875e+00,-7.734375e-01,
449,2.018750e+00,-6.496875e-01,
450,2.018750e+00,-7.425000e-01,
451,2.196875e+00,-6.187500e-01,
452,2.196875e+00,-7.115625e-01,
453,2.018750e+00,-5.568750e-01,
454,2.196875e+00,-6.496875e-01,
455,2.018750e+00,-5.259375e-01,
456,2.018750e+00,-6.187500e-01,
457,2.196875e+00,-4.950000e-01,
458,2.196875e+00,-5.878125e-01,
459,2.018750e+00,-4.640625e-01,
460,2.196875e+00,-5.568750e-01,
461,1.959375e+00,-4.021875e-01,
462,2.196875e+00,-5.259375e-01,
463,1.959375e+00,-4.021875e-01,
464,2.196875e+00,-4.950000e-01,
465,1.959375e+00,-3.403125e-01,
466,2.196875e+00,-4.331250e-01,
467,1.959375e+00,-3.093750e-01,
468,1.959375e+00,-4.021875e-01,
469,2.196875e+00,-2.784375e-01,
470,2.137500e+00,-3.712500e-01,
471,1.959375e+00,-2.475000e-01,
472,2.137500e+00,-3.403125e-01,
473,1.959375e+00,-1.856250e-01,
474,2.137500e+00,-2.784375e-01,
475,1.900000e+00,-1.546875e-01,
476,2.137500e+00,-2.475000e-01,
477,1.900000e+00,-1.237500e-01,
478,1.900000e+00,-2.165625e-01,
479,2.137500e+00,-9.281250e-02,
480,2.078125e+00,-1.546875e-01,
481,1.900000e+00,-3.093750e-02,
482,2.078125e+00,-1.237500e-01,
483,1.840625e+00,0.000000e+00,
484,2.078125e+00,-9.281250e-02,
485,1.840625e+00,3.093750e-02,
486,1.840625e+00,-6.187500e-02,
487,2.078125e+00,9.281250e-02,
488,1.840625e+00,-3.093750e-02,
489,2.078125e+00,1.237500e-01,
490,2.018750e+00,3.093750e-02,
491,1.781250e+00,1.546875e-01,
492,1.781250e+00,6.187500e-02,
493,2.018750e+00,1.856250e-01,
494,1.781250e+00,9.281250e-02,
495,1.959375e+00,2.165625e-01,
496,1.959375e+00,1.237500e-01,
497,1.721875e+00,2.475000e-01,
498,1.900000e+00,1.546875e-01,
499,1.721875e+00,3.093750e-01,
500,1.900000e+00,1.856250e-01,
501,1.662500e+00,3.403125e-01,
502,1.900000e+00,2.475000e-01,
503,1.662500e+00,3.712500e-01,
504,1.662500e+00,2.784375e-01,
505,1.840625e+00,4.021875e-01,
506,1.840625e+00,3.093750e-01,
507,1.603125e+00,4.331250e-01,
508,1.781250e+00,3.403125e-01,
509,1.603125e+00,4.950000e-01,
510,1.781250e+00,3.712500e-01,
511,1.543750e+00,5.259375e-01,
512,1.781250e+00,4.331250e-01,
513,1.543750e+00,5.568750e-01,
514,1.721875e+00,4.640625e-01,
515,1.484375e+00,5.878125e-01,
516,1.662500e+00,4.950000e-01,
517,1.484375e+00,6.187500e-01,
518,1.662500e+00,5.259375e-01,
519,1.425000e+00,6.806250e-01,
520,1.603125e+00,5.568750e-01,
521,1.425000e+00,7.115625e-01,
522,1.603125e+00,6.187500e-01,
523,1.365625e+00,7.425000e-01,
524,1.365625e+00,6.187500e-01,
525,1.603125e+00,7.734375e-01,
526,1.543750e+00,6.806250e-01,
527,1.306250e+00,8.353125e-01,
528,1.484375e+00,7.115625e-01,
529,1.246875e+00,8.662500e-01,
530,1.246875e+00,7.425000e-01,
531,1.484375e+00,8.971875e-01,
532,1.425000e+00,8.043750e-01,
533,1.187500e+00,9.281250e-01,
534,1.365625e+00,8.353125e-01,
535,1.128125e+00,9.590625e-01,
536,1.365625e+00,8.662500e-01,
537,1.128125e+00,9.900000e-01,
538,1.306250e+00,8.971875e-01,
539,1.068750e+00,1.020938e+00,
540,1.246875e+00,9.281250e-01,
541,1.009375e+00,1.051875e+00,
542,1.246875e+00,9.590625e-01,
543,1.009375e+00,1.113750e+00,
544,1.187500e+00,1.020938e+00,
545,9.500000e-01,1.144688e+00,
546,1.128125e+00,1.051875e+00,
547,8.906250e-01,1.175625e+00,
548,8.906250e-01,1.082813e+00,
549,1.128125e+00,1.206563e+00,
550,1.068750e+00,1.113750e+00,
551,8.312500e-01,1.237500e+00,
552,1.009375e+00,1.144688e+00,
553,7.718750e-01,1.268438e+00,
554,9.500000e-01,1.175625e+00,
555,7.125000e-01,1.330312e+00,
556,8.906250e-01,1.206563e+00,
557,6.531250e-01,1.361250e+00,
558,8.906250e-01,1.268438e+00,
559,5.937500e-01,1.392187e+00,
560,8.312500e-01,1.299375e+00,
561,5.343750e-01,1.423125e+00,
562,7.718750e-01,1.330312e+00,
563,5.343750e-01,1.454062e+00,
564,7.125000e-01,1.361250e+00,
565,4.750000e-01,1.485000e+00,
566,6.531250e-01,1.392187e+00,
567,4.156250e-01,1.515938e+00,
568,5.937500e-01,1.423125e+00,
569,3.562500e-01,1.546875e+00,
570,5.343750e-01,1.454062e+00,
571,2.968750e-01,1.577813e+00,
572,4.750000e-01,1.485000e+00,
573,2.375000e-01,1.608750e+00,
574,4.156250e-01,1.515938e+00,
575,1.781250e-01,1.639688e+00,
576,1.781250e-01,1.546875e+00,
577,4.156250e-01,1.670625e+00,
578,3.562500e-01,1.577813e+00,
579,1.187500e-01,1.701563e+00,
580,5.937500e-02,1.608750e+00,
581,2.968750e-01,1.763438e+00,
582,2.375000e-01,1.639688e+00,
583,0.000000e+00,1.763438e+00,
584,1.781250e-01,1.670625e+00,
585,-5.937500e-02,1.794375e+00,
586,1.187500e-01,1.701563e+00,
587,-1.187500e-01,1.825312e+00,
588,5.937500e-02,1.701563e+00,
589,-1.781250e-01,1.856250e+00,
590,0.000000e+00,1.763438e+00,
591,-2.375000e-01,1.887187e+00,
592,-5.937500e-02,1.794375e+00,
593,-2.968750e-01,1.918125e+00,
594,-1.187500e-01,1.825312e+00,
595,-3.562500e-01,1.949062e+00,
596,-1.781250e-01,1.856250e+00,
597,-4.156250e-01,1.980000e+00,
598,-2.375000e-01,1.856250e+00,
599,-4.750000e-01,2.010937e+00,
600,-2.968750e-01,1.887187e+00,
601,-5.343750e-01,2.041875e+00,
602,-3.562500e-01,1.918125e+00,
603,-5.937500e-01,2.072813e+00,
604,-4.156250e-01,1.949062e+00,
605,-6.531250e-01,2.103750e+00,
606,-4.750000e-01,1.980000e+00,
607,-7.718750e-01,2.103750e+00,
608,-5.343750e-01,2.010937e+00,
609,-8.312500e-01,2.134687e+00,
610,-5.937500e-01,2.041875e+00,
611,-8.906250e-01,2.165625e+00,
612,-7.125000e-01,2.072813e+00,
613,-9.500000e-01,2.196563e+00,
614,-7.125000e-01,2.072813e+00,
615,-1.009375e+00,2.227500e+00,
616,-8.312500e-01,2.103750e+00,
617,-1.068750e+00,2.258438e+00,
618,-8.906250e-01,2.134687e+00,
