vault/proyectos/lab4_1/Informe_de_Laboratorio_Metrología_Exp4/NewDirectory3/Newfile2.csv

X,CH1,Start,Increment,
Sequence,Volt,-3.500000e-06,5.000000e-09,
0,-1.562500e+00,
1,1.562500e+00,
2,-1.562500e+00,
3,1.562500e+00,
4,-1.562500e+00,
5,1.562500e+00,
6,1.562500e+00,
7,-1.562500e+00,
8,-1.562500e+00,
9,1.562500e+00,
10,-1.562500e+00,
11,1.562500e+00,
12,-1.562500e+00,
13,1.562500e+00,
14,-1.562500e+00,
15,1.562500e+00,
16,1.562500e+00,
17,-1.562500e+00,
18,1.562500e+00,
19,-1.562500e+00,
20,-1.562500e+00,
21,1.562500e+00,
22,1.562500e+00,
23,-1.562500e+00,
24,-1.562500e+00,
25,1.562500e+00,
26,-1.562500e+00,
27,1.562500e+00,
28,-1.562500e+00,
29,1.562500e+00,
30,-1.562500e+00,
31,1.562500e+00,
32,-1.562500e+00,
33,1.562500e+00,
34,1.562500e+00,
35,-1.562500e+00,
36,-1.562500e+00,
37,1.562500e+00,
38,-1.562500e+00,
39,1.562500e+00,
40,1.562500e+00,
41,-1.562500e+00,
42,-1.562500e+00,
43,1.562500e+00,
44,-1.562500e+00,
45,1.562500e+00,
46,-1.562500e+00,
47,1.562500e+00,
48,1.562500e+00,
49,-1.562500e+00,
50,-1.562500e+00,
51,1.562500e+00,
52,-1.562500e+00,
53,1.562500e+00,
54,1.562500e+00,
55,-1.562500e+00,
56,-1.562500e+00,
57,1.562500e+00,
58,-1.562500e+00,
59,1.562500e+00,
60,-1.562500e+00,
61,1.562500e+00,
62,1.562500e+00,
63,-1.562500e+00,
64,-1.562500e+00,
65,1.562500e+00,
66,1.562500e+00,
67,-1.562500e+00,
68,-1.562500e+00,
69,1.562500e+00,
70,-1.562500e+00,
71,1.562500e+00,
72,1.562500e+00,
73,-1.562500e+00,
74,-1.562500e+00,
75,1.562500e+00,
76,-1.562500e+00,
77,1.562500e+00,
78,-1.562500e+00,
79,1.562500e+00,
80,-1.562500e+00,
81,1.562500e+00,
82,-1.562500e+00,
83,1.562500e+00,
84,1.562500e+00,
85,-1.562500e+00,
86,-1.562500e+00,
87,1.562500e+00,
88,3.125000e+00,
89,-1.562500e+00,
90,-1.562500e+00,
91,1.562500e+00,
92,-1.562500e+00,
93,1.562500e+00,
94,-1.562500e+00,
95,1.562500e+00,
96,-1.562500e+00,
97,1.562500e+00,
98,-1.562500e+00,
99,1.562500e+00,
100,1.562500e+00,
101,-1.562500e+00,
102,1.562500e+00,
103,-1.562500e+00,
104,-1.562500e+00,
105,1.562500e+00,
106,-1.562500e+00,
107,1.562500e+00,
108,-1.562500e+00,
109,1.562500e+00,
110,-1.562500e+00,
111,1.562500e+00,
112,1.562500e+00,
113,-1.562500e+00,
114,-1.562500e+00,
115,1.562500e+00,
116,1.562500e+00,
117,-1.562500e+00,
118,-1.562500e+00,
119,1.562500e+00,
120,-1.562500e+00,
121,1.562500e+00,
122,-1.562500e+00,
123,1.562500e+00,
124,-1.562500e+00,
125,1.562500e+00,
126,-1.562500e+00,
127,1.562500e+00,
128,-1.562500e+00,
129,1.562500e+00,
130,-1.562500e+00,
131,1.562500e+00,
132,-1.562500e+00,
133,1.562500e+00,
134,-1.562500e+00,
135,1.562500e+00,
136,-1.562500e+00,
137,1.562500e+00,
138,-1.562500e+00,
139,1.562500e+00,
140,1.562500e+00,
141,-1.562500e+00,
142,-1.562500e+00,
143,1.562500e+00,
144,-1.562500e+00,
145,1.562500e+00,
146,-1.562500e+00,
147,1.562500e+00,
148,1.562500e+00,
149,-1.562500e+00,
150,-1.562500e+00,
151,1.562500e+00,
152,1.562500e+00,
153,-1.562500e+00,
154,-1.562500e+00,
155,1.562500e+00,
156,-1.562500e+00,
157,1.562500e+00,
158,1.562500e+00,
159,-1.562500e+00,
160,-1.562500e+00,
161,1.562500e+00,
162,-1.562500e+00,
163,1.562500e+00,
164,-1.562500e+00,
165,1.562500e+00,
166,-1.562500e+00,
167,1.562500e+00,
168,-1.562500e+00,
169,1.562500e+00,
170,-1.562500e+00,
171,1.562500e+00,
172,-1.562500e+00,
173,1.562500e+00,
174,-1.562500e+00,
175,1.562500e+00,
176,-1.562500e+00,
177,1.562500e+00,
178,-1.562500e+00,
179,1.562500e+00,
180,-1.562500e+00,
181,1.562500e+00,
182,-1.562500e+00,
183,1.562500e+00,
184,-1.562500e+00,
185,1.562500e+00,
186,-1.562500e+00,
187,1.562500e+00,
188,1.562500e+00,
189,-1.562500e+00,
190,-1.562500e+00,
191,1.562500e+00,
192,-1.562500e+00,
193,1.562500e+00,
194,1.562500e+00,
195,-1.562500e+00,
196,-1.562500e+00,
197,1.562500e+00,
198,-1.562500e+00,
199,1.562500e+00,
200,-1.562500e+00,
201,1.562500e+00,
202,-1.562500e+00,
203,1.562500e+00,
204,1.562500e+00,
205,-1.562500e+00,
206,1.562500e+00,
207,-1.562500e+00,
208,-1.562500e+00,
209,1.562500e+00,
210,1.562500e+00,
211,-1.562500e+00,
212,-1.562500e+00,
213,1.562500e+00,
214,1.562500e+00,
215,-1.562500e+00,
216,-1.562500e+00,
217,1.562500e+00,
218,1.562500e+00,
219,-1.562500e+00,
220,1.562500e+00,
221,-1.562500e+00,
222,1.562500e+00,
223,-1.562500e+00,
224,1.562500e+00,
225,-1.562500e+00,
226,-1.562500e+00,
227,1.562500e+00,
228,1.562500e+00,
229,-1.562500e+00,
230,1.562500e+00,
231,-1.562500e+00,
232,-1.562500e+00,
233,1.562500e+00,
234,-1.562500e+00,
235,1.562500e+00,
236,-1.562500e+00,
237,1.562500e+00,
238,-1.562500e+00,
239,1.562500e+00,
240,1.562500e+00,
241,-1.562500e+00,
242,1.562500e+00,
243,-1.562500e+00,
244,3.125000e+00,
245,-1.562500e+00,
246,-1.562500e+00,
247,3.125000e+00,
248,-1.562500e+00,
249,1.562500e+00,
250,-1.562500e+00,
251,1.562500e+00,
252,-1.562500e+00,
253,1.562500e+00,
254,-1.562500e+00,
255,1.562500e+00,
256,-1.562500e+00,
257,1.562500e+00,
258,-1.562500e+00,
259,1.562500e+00,
260,-1.562500e+00,
261,1.562500e+00,
262,1.562500e+00,
263,-1.562500e+00,
264,-1.562500e+00,
265,1.562500e+00,
266,-1.562500e+00,
267,3.125000e+00,
268,1.562500e+00,
269,-1.562500e+00,
270,-1.562500e+00,
271,1.562500e+00,
272,-1.562500e+00,
273,1.562500e+00,
274,3.125000e+00,
275,-1.562500e+00,
276,-3.125000e+00,
277,1.562500e+00,
278,-1.562500e+00,
279,1.562500e+00,
280,-1.562500e+00,
281,1.562500e+00,
282,-1.562500e+00,
283,1.562500e+00,
284,-1.562500e+00,
285,1.562500e+00,
286,-1.562500e+00,
287,1.562500e+00,
288,-1.562500e+00,
289,1.562500e+00,
290,-1.562500e+00,
291,1.562500e+00,
292,3.125000e+00,
293,-1.562500e+00,
294,1.562500e+00,
295,-1.562500e+00,
296,-1.562500e+00,
297,1.562500e+00,
298,-1.562500e+00,
299,1.562500e+00,
300,1.562500e+00,
301,-1.562500e+00,
302,1.562500e+00,
303,-1.562500e+00,
304,-1.562500e+00,
305,1.562500e+00,
306,-1.562500e+00,
307,1.562500e+00,
308,-1.562500e+00,
309,1.562500e+00,
310,-1.562500e+00,
311,1.562500e+00,
312,-1.562500e+00,
313,1.562500e+00,
314,-1.562500e+00,
315,1.562500e+00,
316,-1.562500e+00,
317,1.562500e+00,
318,-1.562500e+00,
319,1.562500e+00,
320,-1.562500e+00,
321,1.562500e+00,
322,1.562500e+00,
323,-1.562500e+00,
324,-1.562500e+00,
325,1.562500e+00,
326,-1.562500e+00,
327,1.562500e+00,
328,1.562500e+00,
329,-1.562500e+00,
330,-1.562500e+00,
331,1.562500e+00,
332,-1.562500e+00,
333,1.562500e+00,
334,-1.562500e+00,
335,1.562500e+00,
336,3.125000e+00,
337,-1.562500e+00,
338,1.562500e+00,
339,-1.562500e+00,
340,1.562500e+00,
341,-1.562500e+00,
342,1.562500e+00,
343,-1.562500e+00,
344,1.562500e+00,
345,-1.562500e+00,
346,1.562500e+00,
347,-1.562500e+00,
348,-1.562500e+00,
349,1.562500e+00,
350,-1.562500e+00,
351,1.562500e+00,
352,-1.562500e+00,
353,3.125000e+00,
354,1.562500e+00,
355,-1.562500e+00,
356,-1.562500e+00,
357,3.125000e+00,
358,-1.562500e+00,
359,1.562500e+00,
360,1.562500e+00,
361,-1.562500e+00,
362,-1.562500e+00,
363,1.562500e+00,
364,1.562500e+00,
365,-1.562500e+00,
366,-1.562500e+00,
367,1.562500e+00,
368,1.562500e+00,
369,-1.562500e+00,
370,1.562500e+00,
371,-1.562500e+00,
372,-1.562500e+00,
373,1.562500e+00,
374,-1.562500e+00,
375,3.125000e+00,
376,1.562500e+00,
377,-1.562500e+00,
378,1.562500e+00,
379,-1.562500e+00,
380,-1.562500e+00,
381,1.562500e+00,
382,-1.562500e+00,
383,1.562500e+00,
384,1.562500e+00,
385,-1.562500e+00,
386,-1.562500e+00,
387,1.562500e+00,
388,-1.562500e+00,
389,1.562500e+00,
390,3.125000e+00,
391,-1.562500e+00,
392,-1.562500e+00,
393,1.562500e+00,
394,-1.562500e+00,
395,3.125000e+00,
396,-1.562500e+00,
397,1.562500e+00,
398,-1.562500e+00,
399,1.562500e+00,
400,1.562500e+00,
401,-1.562500e+00,
402,-1.562500e+00,
403,3.125000e+00,
404,1.562500e+00,
405,-1.562500e+00,
406,1.562500e+00,
407,-1.562500e+00,
408,-1.562500e+00,
409,3.125000e+00,
410,-1.562500e+00,
411,1.562500e+00,
412,-1.562500e+00,
413,1.562500e+00,
414,1.562500e+00,
415,-1.562500e+00,
416,1.562500e+00,
417,-1.562500e+00,
418,-1.562500e+00,
419,1.562500e+00,
420,-1.562500e+00,
421,1.562500e+00,
422,-1.562500e+00,
423,3.125000e+00,
424,-1.562500e+00,
425,1.562500e+00,
426,-1.562500e+00,
427,1.562500e+00,
428,1.562500e+00,
429,-1.562500e+00,
430,-1.562500e+00,
431,1.562500e+00,
432,-1.562500e+00,
433,1.562500e+00,
434,1.562500e+00,
435,-1.562500e+00,
436,-1.562500e+00,
437,1.562500e+00,
438,-1.562500e+00,
439,1.562500e+00,
440,-1.562500e+00,
441,1.562500e+00,
442,-1.562500e+00,
443,1.562500e+00,
444,-1.562500e+00,
445,1.562500e+00,
446,0.000000e+00,
447,1.562500e+00,
448,1.562500e+00,
449,-1.562500e+00,
450,1.562500e+00,
451,-1.562500e+00,
452,-1.562500e+00,
453,1.562500e+00,
454,-1.562500e+00,
455,1.562500e+00,
456,-1.562500e+00,
457,1.562500e+00,
458,-1.562500e+00,
459,1.562500e+00,
460,-1.562500e+00,
461,1.562500e+00,
462,1.562500e+00,
463,-1.562500e+00,
464,1.562500e+00,
465,-1.562500e+00,
466,-1.562500e+00,
467,1.562500e+00,
468,-1.562500e+00,
469,1.562500e+00,
470,1.562500e+00,
471,-1.562500e+00,
472,-1.562500e+00,
473,1.562500e+00,
474,-1.562500e+00,
475,1.562500e+00,
476,-1.562500e+00,
477,3.125000e+00,
478,1.562500e+00,
479,-1.562500e+00,
480,-1.562500e+00,
481,1.562500e+00,
482,-1.562500e+00,
483,1.562500e+00,
484,-1.562500e+00,
485,3.125000e+00,
486,-1.562500e+00,
487,1.562500e+00,
488,-1.562500e+00,
489,1.562500e+00,
490,1.562500e+00,
491,-1.562500e+00,
492,-1.562500e+00,
493,3.125000e+00,
494,1.562500e+00,
495,-1.562500e+00,
496,1.562500e+00,
497,-1.562500e+00,
498,-1.562500e+00,
499,3.125000e+00,
500,-1.562500e+00,
501,1.562500e+00,
502,-1.562500e+00,
503,1.562500e+00,
504,-1.562500e+00,
505,3.125000e+00,
506,-1.562500e+00,
507,1.562500e+00,
508,-1.562500e+00,
509,1.562500e+00,
510,3.125000e+00,
511,-1.562500e+00,
512,1.562500e+00,
513,-1.562500e+00,
514,1.562500e+00,
515,-1.562500e+00,
516,1.562500e+00,
517,-1.562500e+00,
518,1.562500e+00,
519,-1.562500e+00,
520,-1.562500e+00,
521,3.125000e+00,
522,-1.562500e+00,
523,3.125000e+00,
524,1.562500e+00,
525,-1.562500e+00,
526,-1.562500e+00,
527,1.562500e+00,
528,-1.562500e+00,
529,1.562500e+00,
530,-1.562500e+00,
531,1.562500e+00,
532,-1.562500e+00,
533,1.562500e+00,
534,1.562500e+00,
535,-1.562500e+00,
536,3.125000e+00,
537,-1.562500e+00,
538,-1.562500e+00,
539,1.562500e+00,
540,1.562500e+00,
541,-1.562500e+00,
542,-1.562500e+00,
543,1.562500e+00,
544,-1.562500e+00,
545,1.562500e+00,
546,-1.562500e+00,
547,1.562500e+00,
548,1.562500e+00,
549,-1.562500e+00,
550,-1.562500e+00,
551,1.562500e+00,
552,1.562500e+00,
553,-1.562500e+00,
554,-1.562500e+00,
555,1.562500e+00,
556,1.562500e+00,
557,-3.125000e+00,
558,1.562500e+00,
559,-1.562500e+00,
560,1.562500e+00,
561,-1.562500e+00,
562,1.562500e+00,
563,-1.562500e+00,
564,-1.562500e+00,
565,1.562500e+00,
566,-1.562500e+00,
567,1.562500e+00,
568,3.125000e+00,
569,-1.562500e+00,
570,0.000000e+00,
571,3.125000e+00,
572,3.125000e+00,
573,-1.562500e+00,
574,-1.562500e+00,
575,1.562500e+00,
576,-1.562500e+00,
577,1.562500e+00,
578,3.125000e+00,
579,-1.562500e+00,
580,-1.562500e+00,
581,1.562500e+00,
582,-1.562500e+00,
583,1.562500e+00,
584,-1.562500e+00,
585,1.562500e+00,
586,1.562500e+00,
587,-1.562500e+00,
588,3.125000e+00,
589,-1.562500e+00,
590,-1.562500e+00,
591,1.562500e+00,
592,0.000000e+00,
593,1.562500e+00,
594,3.125000e+00,
595,-1.562500e+00,
596,1.562500e+00,
597,-1.562500e+00,
598,1.562500e+00,
599,-1.562500e+00,
600,-1.562500e+00,
601,3.125000e+00,
602,-1.562500e+00,
603,1.562500e+00,
604,1.562500e+00,
605,-1.562500e+00,
606,3.125000e+00,
607,-1.562500e+00,
608,1.562500e+00,
609,-1.562500e+00,
610,1.562500e+00,
611,-1.562500e+00,
612,-1.562500e+00,
613,1.562500e+00,
614,-1.562500e+00,
615,1.562500e+00,
616,1.562500e+00,
617,-1.562500e+00,
618,3.125000e+00,
619,-1.562500e+00,
620,1.562500e+00,
621,-1.562500e+00,
622,1.562500e+00,
623,-1.562500e+00,
624,3.125000e+00,
625,-1.562500e+00,
626,0.000000e+00,
627,3.125000e+00,
628,3.125000e+00,
629,-1.562500e+00,
630,1.562500e+00,
631,-1.562500e+00,
632,1.562500e+00,
633,-1.562500e+00,
634,3.125000e+00,
635,-1.562500e+00,
636,1.562500e+00,
637,-1.562500e+00,
638,-1.562500e+00,
639,3.125000e+00,
640,0.000000e+00,
641,3.125000e+00,
642,0.000000e+00,
643,3.125000e+00,
644,3.125000e+00,
645,-1.562500e+00,
646,3.125000e+00,
647,0.000000e+00,
648,0.000000e+00,
649,4.687500e+00,
650,1.562500e+00,
651,4.687500e+00,
652,3.125000e+00,
653,6.250000e+00,
654,4.687500e+00,
655,7.812500e+00,
656,6.250000e+00,
657,9.375000e+00,
658,7.812500e+00,
659,1.093750e+01,
660,9.375000e+00,
661,1.406250e+01,
662,1.250000e+01,
663,1.718750e+01,
664,1.562500e+01,
665,2.031250e+01,
666,1.718750e+01,
667,2.187500e+01,
668,2.031250e+01,
669,2.343750e+01,
670,2.187500e+01,
671,2.656250e+01,
672,2.500000e+01,
673,2.812500e+01,
674,2.656250e+01,
675,2.968750e+01,
676,2.812500e+01,
677,3.281250e+01,
678,2.968750e+01,
679,3.281250e+01,
680,3.125000e+01,
681,3.593750e+01,
682,3.281250e+01,
683,3.593750e+01,
684,3.437500e+01,
685,3.750000e+01,
686,3.593750e+01,
687,3.906250e+01,
688,3.750000e+01,
689,3.906250e+01,
690,4.062500e+01,
691,3.750000e+01,
692,4.218750e+01,
693,3.906250e+01,
694,4.062500e+01,
695,4.375000e+01,
696,4.218750e+01,
697,4.375000e+01,
698,4.218750e+01,
699,4.687500e+01,
700,4.375000e+01,
701,4.843750e+01,
702,4.687500e+01,
703,5.000000e+01,
704,4.843750e+01,
705,5.312500e+01,
706,5.156250e+01,
707,5.625000e+01,
708,5.468750e+01,
709,5.937500e+01,
710,5.625000e+01,
711,6.250000e+01,
712,6.093750e+01,
713,6.406250e+01,
714,6.250000e+01,
715,6.875000e+01,
716,6.562500e+01,
717,7.031250e+01,
718,6.875000e+01,
719,7.343750e+01,
720,7.187500e+01,
721,7.656250e+01,
722,7.343750e+01,
723,7.812500e+01,
724,7.656250e+01,
725,7.968750e+01,
726,7.968750e+01,
727,8.281250e+01,
728,8.125000e+01,
729,8.593750e+01,
730,8.437500e+01,
731,8.750000e+01,
732,8.593750e+01,
733,8.906250e+01,
734,8.906250e+01,
735,9.218750e+01,
736,9.062500e+01,
737,9.375000e+01,
738,9.218750e+01,
739,9.687500e+01,
740,9.531250e+01,
741,1.000000e+02,
742,9.687500e+01,
743,1.031250e+02,
744,1.000000e+02,
745,1.046875e+02,
746,1.031250e+02,
747,1.078125e+02,
748,1.062500e+02,
749,1.109375e+02,
750,1.093750e+02,
751,1.140625e+02,
752,1.125000e+02,
753,1.156250e+02,
754,1.156250e+02,
755,1.187500e+02,
756,1.171875e+02,
757,1.218750e+02,
758,1.203125e+02,
759,1.234375e+02,
760,1.218750e+02,
761,1.265625e+02,
762,1.250000e+02,
763,1.281250e+02,
764,1.281250e+02,
765,1.296875e+02,
766,1.296875e+02,
767,1.328125e+02,
768,1.312500e+02,
769,1.343750e+02,
770,1.328125e+02,
771,1.359375e+02,
772,1.343750e+02,
773,1.375000e+02,
774,1.359375e+02,
775,1.390625e+02,
776,1.421875e+02,
777,1.390625e+02,
778,1.406250e+02,
779,1.421875e+02,
780,1.421875e+02,
781,1.453125e+02,
782,1.437500e+02,
783,1.468750e+02,
784,1.468750e+02,
785,1.484375e+02,
786,1.468750e+02,
787,1.500000e+02,
788,1.500000e+02,
789,1.531250e+02,
790,1.515625e+02,
791,1.546875e+02,
792,1.531250e+02,
793,1.578125e+02,
794,1.562500e+02,
795,1.593750e+02,
796,1.578125e+02,
797,1.609375e+02,
798,1.609375e+02,
799,1.640625e+02,
800,1.625000e+02,
801,1.671875e+02,
802,1.640625e+02,
803,1.671875e+02,
804,1.656250e+02,
805,1.703125e+02,
806,1.687500e+02,
807,1.718750e+02,
808,1.703125e+02,
809,1.734375e+02,
810,1.718750e+02,
811,1.750000e+02,
812,1.734375e+02,
813,1.765625e+02,
814,1.734375e+02,
815,1.781250e+02,
816,1.765625e+02,
817,1.781250e+02,
818,1.781250e+02,
819,1.796875e+02,
820,1.781250e+02,
821,1.812500e+02,
822,1.796875e+02,
823,1.828125e+02,
824,1.796875e+02,
825,1.843750e+02,
826,1.828125e+02,
827,1.843750e+02,
828,1.859375e+02,
829,1.828125e+02,
830,1.843750e+02,
831,1.875000e+02,
832,1.859375e+02,
833,1.890625e+02,
834,1.859375e+02,
835,1.890625e+02,
836,1.875000e+02,
837,1.906250e+02,
838,1.890625e+02,
839,1.921875e+02,
840,1.890625e+02,
841,1.937500e+02,
842,1.906250e+02,
843,1.937500e+02,
844,1.921875e+02,
845,1.953125e+02,
846,1.921875e+02,
847,1.968750e+02,
848,1.937500e+02,
849,1.968750e+02,
850,1.953125e+02,
851,1.984375e+02,
852,1.968750e+02,
853,1.984375e+02,
854,1.968750e+02,
855,2.000000e+02,
856,1.984375e+02,
857,2.015625e+02,
858,1.984375e+02,
859,2.015625e+02,
860,2.000000e+02,
861,2.031250e+02,
862,2.000000e+02,
863,2.031250e+02,
864,2.015625e+02,
865,2.046875e+02,
866,2.031250e+02,
867,2.062500e+02,
868,2.031250e+02,
869,2.062500e+02,
870,2.046875e+02,
871,2.078125e+02,
872,2.062500e+02,
873,2.078125e+02,
874,2.062500e+02,
875,2.109375e+02,
876,2.078125e+02,
877,2.109375e+02,
878,2.093750e+02,
879,2.125000e+02,
880,2.109375e+02,
881,2.140625e+02,
882,2.109375e+02,
883,2.156250e+02,
884,2.125000e+02,
885,2.171875e+02,
886,2.140625e+02,
887,2.171875e+02,
888,2.156250e+02,
889,2.187500e+02,
890,2.171875e+02,
891,2.187500e+02,
892,2.171875e+02,
893,2.203125e+02,
894,2.187500e+02,
895,2.218750e+02,
896,2.187500e+02,
897,2.234375e+02,
898,2.203125e+02,
899,2.234375e+02,
900,2.234375e+02,
901,2.218750e+02,
902,2.250000e+02,
903,2.218750e+02,
904,2.234375e+02,
905,2.265625e+02,
906,2.234375e+02,
907,2.265625e+02,
908,2.250000e+02,
909,2.281250e+02,
910,2.250000e+02,
911,2.281250e+02,
912,2.250000e+02,
913,2.281250e+02,
914,2.265625e+02,
915,2.296875e+02,
916,2.281250e+02,
917,2.296875e+02,
918,2.296875e+02,
919,2.281250e+02,
920,2.281250e+02,
921,2.312500e+02,
922,2.312500e+02,
923,2.296875e+02,
924,2.296875e+02,
925,2.328125e+02,
926,2.296875e+02,
927,2.328125e+02,
928,2.312500e+02,
929,2.343750e+02,
930,2.312500e+02,
931,2.343750e+02,
932,2.312500e+02,
933,2.343750e+02,
934,2.328125e+02,
935,2.359375e+02,
936,2.343750e+02,
937,2.375000e+02,
938,2.343750e+02,
939,2.375000e+02,
940,2.359375e+02,
941,2.375000e+02,
942,2.359375e+02,
943,2.375000e+02,
944,2.390625e+02,
945,2.359375e+02,
946,2.375000e+02,
947,2.390625e+02,
948,2.375000e+02,
949,2.406250e+02,
950,2.390625e+02,
951,2.421875e+02,
952,2.390625e+02,
953,2.421875e+02,
954,2.390625e+02,
955,2.421875e+02,
956,2.390625e+02,
957,2.421875e+02,
958,2.406250e+02,
959,2.421875e+02,
960,2.406250e+02,
961,2.437500e+02,
962,2.406250e+02,
963,2.437500e+02,
964,2.421875e+02,
965,2.453125e+02,
966,2.453125e+02,
967,2.421875e+02,
968,2.421875e+02,
969,2.453125e+02,
970,2.421875e+02,
971,2.453125e+02,
972,2.421875e+02,
973,2.468750e+02,
974,2.437500e+02,
975,2.468750e+02,
976,2.468750e+02,
977,2.437500e+02,
978,2.437500e+02,
979,2.468750e+02,
980,2.453125e+02,
981,2.468750e+02,
982,2.484375e+02,
983,2.453125e+02,
984,2.453125e+02,
985,2.484375e+02,
986,2.453125e+02,
987,2.484375e+02,
988,2.468750e+02,
989,2.484375e+02,
990,2.468750e+02,
991,2.500000e+02,
992,2.468750e+02,
993,2.500000e+02,
994,2.468750e+02,
995,2.500000e+02,
996,2.500000e+02,
997,2.468750e+02,
998,2.468750e+02,
999,2.500000e+02,
1000,2.484375e+02,
1001,2.500000e+02,
1002,2.484375e+02,
1003,2.500000e+02,
1004,2.484375e+02,
1005,2.515625e+02,
1006,2.484375e+02,
1007,2.515625e+02,
1008,2.484375e+02,
1009,2.515625e+02,
1010,2.484375e+02,
1011,2.515625e+02,
1012,2.500000e+02,
1013,2.531250e+02,
1014,2.500000e+02,
1015,2.531250e+02,
1016,2.515625e+02,
1017,2.531250e+02,
1018,2.500000e+02,
1019,2.531250e+02,
1020,2.515625e+02,
1021,2.546875e+02,
1022,2.515625e+02,
1023,2.546875e+02,
1024,2.515625e+02,
1025,2.546875e+02,
1026,2.531250e+02,
1027,2.562500e+02,
1028,2.546875e+02,
1029,2.531250e+02,
1030,2.531250e+02,
1031,2.578125e+02,
1032,2.562500e+02,
1033,2.531250e+02,
1034,2.531250e+02,
1035,2.562500e+02,
1036,2.531250e+02,
1037,2.578125e+02,
1038,2.546875e+02,
1039,2.578125e+02,
1040,2.578125e+02,
1041,2.546875e+02,
1042,2.578125e+02,
1043,2.546875e+02,
1044,2.578125e+02,
1045,2.546875e+02,
1046,2.546875e+02,
1047,2.593750e+02,
1048,2.562500e+02,
1049,2.578125e+02,
1050,2.562500e+02,
1051,2.593750e+02,
1052,2.562500e+02,
1053,2.593750e+02,
1054,2.593750e+02,
1055,2.562500e+02,
1056,2.578125e+02,
1057,2.593750e+02,
1058,2.562500e+02,
1059,2.609375e+02,
1060,2.562500e+02,
1061,2.609375e+02,
1062,2.578125e+02,
1063,2.609375e+02,
1064,2.578125e+02,
1065,2.609375e+02,
1066,2.609375e+02,
1067,2.578125e+02,
1068,2.593750e+02,
1069,2.609375e+02,
1070,2.578125e+02,
1071,2.609375e+02,
1072,2.593750e+02,
1073,2.609375e+02,
1074,2.593750e+02,
1075,2.609375e+02,
1076,2.593750e+02,
1077,2.625000e+02,
1078,2.593750e+02,
1079,2.625000e+02,
1080,2.593750e+02,
1081,2.625000e+02,
1082,2.625000e+02,
1083,2.593750e+02,
1084,2.625000e+02,
1085,2.593750e+02,
1086,2.625000e+02,
1087,2.593750e+02,
1088,2.625000e+02,
1089,2.593750e+02,
