vault/proyectos/lab4_1/Informe_de_Laboratorio_Metrología_Exp4/NewDirectory3/Newfile3.csv

X,CH1,Start,Increment,
Sequence,Volt,-4.080000e-07,2.000000e-09,
0,-1.562500e+00,
1,1.562500e+00,
2,1.562500e+00,
3,-1.562500e+00,
4,1.562500e+00,
5,-1.562500e+00,
6,-1.562500e+00,
7,1.562500e+00,
8,1.562500e+00,
9,-1.562500e+00,
10,1.562500e+00,
11,-1.562500e+00,
12,-1.562500e+00,
13,1.562500e+00,
14,1.562500e+00,
15,-1.562500e+00,
16,1.562500e+00,
17,0.000000e+00,
18,1.562500e+00,
19,-1.562500e+00,
20,1.562500e+00,
21,-1.562500e+00,
22,1.562500e+00,
23,-1.562500e+00,
24,1.562500e+00,
25,0.000000e+00,
26,3.125000e+00,
27,-1.562500e+00,
28,1.562500e+00,
29,-1.562500e+00,
30,1.562500e+00,
31,-1.562500e+00,
32,3.125000e+00,
33,-1.562500e+00,
34,1.562500e+00,
35,-1.562500e+00,
36,0.000000e+00,
37,1.562500e+00,
38,0.000000e+00,
39,1.562500e+00,
40,1.562500e+00,
41,-1.562500e+00,
42,0.000000e+00,
43,1.562500e+00,
44,-1.562500e+00,
45,1.562500e+00,
46,1.562500e+00,
47,-1.562500e+00,
48,1.562500e+00,
49,0.000000e+00,
50,3.125000e+00,
51,0.000000e+00,
52,1.562500e+00,
53,-1.562500e+00,
54,1.562500e+00,
55,0.000000e+00,
56,1.562500e+00,
57,-1.562500e+00,
58,1.562500e+00,
59,-1.562500e+00,
60,-1.562500e+00,
61,1.562500e+00,
62,1.562500e+00,
63,-1.562500e+00,
64,1.562500e+00,
65,-1.562500e+00,
66,3.125000e+00,
67,-1.562500e+00,
68,1.562500e+00,
69,-1.562500e+00,
70,1.562500e+00,
71,-1.562500e+00,
72,1.562500e+00,
73,-1.562500e+00,
74,1.562500e+00,
75,-1.562500e+00,
76,1.562500e+00,
77,0.000000e+00,
78,-1.562500e+00,
79,3.125000e+00,
80,1.562500e+00,
81,-1.562500e+00,
82,1.562500e+00,
83,0.000000e+00,
84,1.562500e+00,
85,-1.562500e+00,
86,1.562500e+00,
87,-1.562500e+00,
88,1.562500e+00,
89,0.000000e+00,
90,3.125000e+00,
91,-1.562500e+00,
92,0.000000e+00,
93,1.562500e+00,
94,0.000000e+00,
95,1.562500e+00,
96,1.562500e+00,
97,0.000000e+00,
98,1.562500e+00,
99,-1.562500e+00,
100,1.562500e+00,
101,-1.562500e+00,
102,1.562500e+00,
103,-1.562500e+00,
104,3.125000e+00,
105,0.000000e+00,
106,1.562500e+00,
107,0.000000e+00,
108,1.562500e+00,
109,-1.562500e+00,
110,1.562500e+00,
111,-1.562500e+00,
112,1.562500e+00,
113,0.000000e+00,
114,0.000000e+00,
115,3.125000e+00,
116,-1.562500e+00,
117,1.562500e+00,
118,3.125000e+00,
119,-1.562500e+00,
120,0.000000e+00,
121,1.562500e+00,
122,1.562500e+00,
123,0.000000e+00,
124,1.562500e+00,
125,0.000000e+00,
126,-1.562500e+00,
127,1.562500e+00,
128,3.125000e+00,
129,0.000000e+00,
130,0.000000e+00,
131,3.125000e+00,
132,0.000000e+00,
133,1.562500e+00,
134,3.125000e+00,
135,-1.562500e+00,
136,0.000000e+00,
137,1.562500e+00,
138,0.000000e+00,
139,1.562500e+00,
140,3.125000e+00,
141,0.000000e+00,
142,3.125000e+00,
143,0.000000e+00,
144,3.125000e+00,
145,1.562500e+00,
146,1.562500e+00,
147,3.125000e+00,
148,1.562500e+00,
149,3.125000e+00,
150,3.125000e+00,
151,1.562500e+00,
152,4.687500e+00,
153,1.562500e+00,
154,3.125000e+00,
155,4.687500e+00,
156,3.125000e+00,
157,4.687500e+00,
158,3.125000e+00,
159,6.250000e+00,
160,3.125000e+00,
161,6.250000e+00,
162,7.812500e+00,
163,4.687500e+00,
164,7.812500e+00,
165,4.687500e+00,
166,6.250000e+00,
167,9.375000e+00,
168,9.375000e+00,
169,6.250000e+00,
170,9.375000e+00,
171,6.250000e+00,
172,1.093750e+01,
173,7.812500e+00,
174,1.093750e+01,
175,9.375000e+00,
176,1.093750e+01,
177,1.250000e+01,
178,1.406250e+01,
179,1.093750e+01,
180,1.406250e+01,
181,1.250000e+01,
182,1.250000e+01,
183,1.562500e+01,
184,1.406250e+01,
185,1.562500e+01,
186,1.562500e+01,
187,1.875000e+01,
188,1.562500e+01,
189,2.031250e+01,
190,1.718750e+01,
191,2.031250e+01,
192,1.718750e+01,
193,2.031250e+01,
194,1.875000e+01,
195,2.187500e+01,
196,2.187500e+01,
197,2.500000e+01,
198,2.187500e+01,
199,2.343750e+01,
200,2.343750e+01,
201,2.656250e+01,
202,2.343750e+01,
203,2.656250e+01,
204,2.500000e+01,
205,2.812500e+01,
206,2.500000e+01,
207,2.656250e+01,
208,2.656250e+01,
209,2.812500e+01,
210,2.968750e+01,
211,2.656250e+01,
212,2.812500e+01,
213,2.968750e+01,
214,3.125000e+01,
215,2.812500e+01,
216,2.968750e+01,
217,3.125000e+01,
218,2.968750e+01,
219,3.281250e+01,
220,3.281250e+01,
221,3.125000e+01,
222,2.968750e+01,
223,3.437500e+01,
224,3.125000e+01,
225,3.437500e+01,
226,3.281250e+01,
227,3.437500e+01,
228,3.593750e+01,
229,3.437500e+01,
230,3.437500e+01,
231,3.593750e+01,
232,3.437500e+01,
233,3.750000e+01,
234,3.437500e+01,
235,3.750000e+01,
236,3.593750e+01,
237,3.750000e+01,
238,3.593750e+01,
239,3.750000e+01,
240,3.906250e+01,
241,3.593750e+01,
242,3.906250e+01,
243,3.750000e+01,
244,3.593750e+01,
245,3.906250e+01,
246,4.062500e+01,
247,3.750000e+01,
248,3.750000e+01,
249,4.062500e+01,
250,3.906250e+01,
251,4.062500e+01,
252,3.750000e+01,
253,4.062500e+01,
254,4.218750e+01,
255,3.906250e+01,
256,4.218750e+01,
257,3.906250e+01,
258,3.906250e+01,
259,4.218750e+01,
260,4.218750e+01,
261,4.062500e+01,
262,4.375000e+01,
263,4.062500e+01,
264,4.062500e+01,
265,4.375000e+01,
266,4.218750e+01,
267,4.375000e+01,
268,4.531250e+01,
269,4.218750e+01,
270,4.375000e+01,
271,4.531250e+01,
272,4.687500e+01,
273,4.375000e+01,
274,4.531250e+01,
275,4.687500e+01,
276,4.843750e+01,
277,4.531250e+01,
278,4.687500e+01,
279,4.843750e+01,
280,5.000000e+01,
281,4.843750e+01,
282,4.843750e+01,
283,5.000000e+01,
284,4.843750e+01,
285,5.156250e+01,
286,5.000000e+01,
287,5.156250e+01,
288,5.156250e+01,
289,5.312500e+01,
290,5.156250e+01,
291,5.468750e+01,
292,5.625000e+01,
293,5.312500e+01,
294,5.312500e+01,
295,5.625000e+01,
296,5.468750e+01,
297,5.781250e+01,
298,5.625000e+01,
299,5.937500e+01,
300,6.093750e+01,
301,5.781250e+01,
302,5.781250e+01,
303,6.093750e+01,
304,5.937500e+01,
305,6.406250e+01,
306,6.093750e+01,
307,6.406250e+01,
308,6.093750e+01,
309,6.406250e+01,
310,6.250000e+01,
311,6.562500e+01,
312,6.562500e+01,
313,6.406250e+01,
314,6.562500e+01,
315,6.718750e+01,
316,6.718750e+01,
317,6.875000e+01,
318,7.031250e+01,
319,6.875000e+01,
320,6.875000e+01,
321,7.187500e+01,
322,7.343750e+01,
323,7.031250e+01,
324,7.031250e+01,
325,7.343750e+01,
326,7.500000e+01,
327,7.343750e+01,
328,7.343750e+01,
329,7.656250e+01,
330,7.812500e+01,
331,7.500000e+01,
332,7.500000e+01,
333,7.812500e+01,
334,7.812500e+01,
335,7.656250e+01,
336,7.812500e+01,
337,7.968750e+01,
338,8.125000e+01,
339,7.812500e+01,
340,7.968750e+01,
341,8.125000e+01,
342,8.281250e+01,
343,7.968750e+01,
344,8.125000e+01,
345,8.437500e+01,
346,8.125000e+01,
347,8.593750e+01,
348,8.593750e+01,
349,8.281250e+01,
350,8.281250e+01,
351,8.593750e+01,
352,8.437500e+01,
353,8.750000e+01,
354,8.437500e+01,
355,8.750000e+01,
356,8.750000e+01,
357,8.906250e+01,
358,9.062500e+01,
359,8.750000e+01,
360,8.750000e+01,
361,9.062500e+01,
362,8.906250e+01,
363,9.218750e+01,
364,9.062500e+01,
365,9.375000e+01,
366,9.062500e+01,
367,9.375000e+01,
368,9.218750e+01,
369,9.531250e+01,
370,9.375000e+01,
371,9.687500e+01,
372,9.375000e+01,
373,9.687500e+01,
374,9.531250e+01,
375,9.843750e+01,
376,9.531250e+01,
377,9.843750e+01,
378,1.000000e+02,
379,9.687500e+01,
380,9.843750e+01,
381,1.015625e+02,
382,9.843750e+01,
383,1.015625e+02,
384,1.000000e+02,
385,1.031250e+02,
386,1.015625e+02,
387,1.046875e+02,
388,1.031250e+02,
389,1.046875e+02,
390,1.031250e+02,
391,1.062500e+02,
392,1.046875e+02,
393,1.078125e+02,
394,1.062500e+02,
395,1.093750e+02,
396,1.062500e+02,
397,1.109375e+02,
398,1.078125e+02,
399,1.109375e+02,
400,1.125000e+02,
401,1.093750e+02,
402,1.109375e+02,
403,1.140625e+02,
404,1.109375e+02,
405,1.140625e+02,
406,1.125000e+02,
407,1.156250e+02,
408,1.171875e+02,
409,1.140625e+02,
410,1.156250e+02,
411,1.187500e+02,
412,1.171875e+02,
413,1.187500e+02,
414,1.171875e+02,
415,1.203125e+02,
416,1.187500e+02,
417,1.218750e+02,
418,1.203125e+02,
419,1.218750e+02,
420,1.234375e+02,
421,1.203125e+02,
422,1.234375e+02,
423,1.218750e+02,
424,1.265625e+02,
425,1.234375e+02,
426,1.250000e+02,
427,1.265625e+02,
428,1.250000e+02,
429,1.281250e+02,
430,1.281250e+02,
431,1.265625e+02,
432,1.265625e+02,
433,1.296875e+02,
434,1.281250e+02,
435,1.312500e+02,
436,1.296875e+02,
437,1.312500e+02,
438,1.312500e+02,
439,1.296875e+02,
440,1.328125e+02,
441,1.312500e+02,
442,1.343750e+02,
443,1.312500e+02,
444,1.343750e+02,
445,1.328125e+02,
446,1.343750e+02,
447,1.328125e+02,
448,1.359375e+02,
449,1.328125e+02,
450,1.359375e+02,
451,1.343750e+02,
452,1.343750e+02,
453,1.375000e+02,
454,1.359375e+02,
455,1.390625e+02,
456,1.390625e+02,
457,1.359375e+02,
458,1.375000e+02,
459,1.390625e+02,
460,1.375000e+02,
461,1.406250e+02,
462,1.390625e+02,
463,1.406250e+02,
464,1.390625e+02,
465,1.406250e+02,
466,1.390625e+02,
467,1.421875e+02,
468,1.421875e+02,
469,1.406250e+02,
470,1.437500e+02,
471,1.406250e+02,
472,1.421875e+02,
473,1.437500e+02,
474,1.421875e+02,
475,1.437500e+02,
476,1.421875e+02,
477,1.453125e+02,
478,1.437500e+02,
479,1.468750e+02,
480,1.453125e+02,
481,1.468750e+02,
482,1.484375e+02,
483,1.453125e+02,
484,1.468750e+02,
485,1.484375e+02,
486,1.484375e+02,
487,1.484375e+02,
488,1.484375e+02,
489,1.500000e+02,
490,1.484375e+02,
491,1.500000e+02,
492,1.500000e+02,
493,1.515625e+02,
494,1.500000e+02,
495,1.531250e+02,
496,1.500000e+02,
497,1.531250e+02,
498,1.515625e+02,
499,1.546875e+02,
500,1.531250e+02,
501,1.546875e+02,
502,1.531250e+02,
503,1.562500e+02,
504,1.531250e+02,
505,1.562500e+02,
506,1.562500e+02,
507,1.578125e+02,
508,1.578125e+02,
509,1.562500e+02,
510,1.593750e+02,
511,1.578125e+02,
512,1.578125e+02,
513,1.609375e+02,
514,1.593750e+02,
515,1.609375e+02,
516,1.593750e+02,
517,1.625000e+02,
518,1.609375e+02,
519,1.640625e+02,
520,1.640625e+02,
521,1.625000e+02,
522,1.625000e+02,
523,1.656250e+02,
524,1.656250e+02,
525,1.640625e+02,
526,1.640625e+02,
527,1.671875e+02,
528,1.671875e+02,
529,1.656250e+02,
530,1.687500e+02,
531,1.656250e+02,
532,1.671875e+02,
533,1.687500e+02,
534,1.687500e+02,
535,1.703125e+02,
536,1.687500e+02,
537,1.718750e+02,
538,1.687500e+02,
539,1.718750e+02,
540,1.718750e+02,
541,1.703125e+02,
542,1.718750e+02,
543,1.734375e+02,
544,1.734375e+02,
545,1.718750e+02,
546,1.718750e+02,
547,1.750000e+02,
548,1.750000e+02,
549,1.734375e+02,
550,1.734375e+02,
551,1.765625e+02,
552,1.734375e+02,
553,1.765625e+02,
554,1.765625e+02,
555,1.750000e+02,
556,1.750000e+02,
557,1.765625e+02,
558,1.765625e+02,
559,1.781250e+02,
560,1.796875e+02,
561,1.781250e+02,
562,1.796875e+02,
563,1.765625e+02,
564,1.796875e+02,
565,1.781250e+02,
566,1.796875e+02,
567,1.781250e+02,
568,1.796875e+02,
569,1.812500e+02,
570,1.812500e+02,
571,1.796875e+02,
572,1.812500e+02,
573,1.796875e+02,
574,1.796875e+02,
575,1.828125e+02,
576,1.828125e+02,
577,1.812500e+02,
578,1.812500e+02,
579,1.843750e+02,
580,1.859375e+02,
581,1.812500e+02,
582,1.828125e+02,
583,1.843750e+02,
584,1.843750e+02,
585,1.828125e+02,
586,1.828125e+02,
587,1.859375e+02,
588,1.843750e+02,
589,1.859375e+02,
590,1.843750e+02,
591,1.859375e+02,
592,1.843750e+02,
593,1.859375e+02,
594,1.843750e+02,
595,1.859375e+02,
596,1.875000e+02,
597,1.859375e+02,
598,1.875000e+02,
599,1.859375e+02,
600,1.859375e+02,
601,1.890625e+02,
602,1.875000e+02,
603,1.890625e+02,
604,1.890625e+02,
605,1.875000e+02,
606,1.890625e+02,
607,1.875000e+02,
608,1.906250e+02,
609,1.875000e+02,
610,1.875000e+02,
611,1.906250e+02,
612,1.906250e+02,
613,1.890625e+02,
614,1.906250e+02,
615,1.890625e+02,
616,1.921875e+02,
617,1.906250e+02,
618,1.921875e+02,
619,1.906250e+02,
620,1.906250e+02,
621,1.921875e+02,
622,1.906250e+02,
623,1.937500e+02,
624,1.937500e+02,
625,1.921875e+02,
626,1.937500e+02,
627,1.921875e+02,
628,1.921875e+02,
629,1.937500e+02,
630,1.921875e+02,
631,1.953125e+02,
632,1.953125e+02,
633,1.937500e+02,
634,1.968750e+02,
635,1.937500e+02,
636,1.937500e+02,
637,1.968750e+02,
638,1.968750e+02,
639,1.937500e+02,
640,1.968750e+02,
641,1.953125e+02,
642,1.968750e+02,
643,1.953125e+02,
644,1.968750e+02,
645,1.984375e+02,
646,1.984375e+02,
647,1.968750e+02,
648,1.984375e+02,
649,1.968750e+02,
650,1.984375e+02,
651,1.968750e+02,
652,1.968750e+02,
653,2.000000e+02,
654,2.000000e+02,
655,1.984375e+02,
656,2.000000e+02,
657,1.984375e+02,
658,2.015625e+02,
659,1.984375e+02,
660,1.984375e+02,
661,2.015625e+02,
662,2.000000e+02,
663,2.031250e+02,
664,2.031250e+02,
665,2.000000e+02,
666,2.031250e+02,
667,2.000000e+02,
668,2.000000e+02,
669,2.031250e+02,
670,2.000000e+02,
671,2.031250e+02,
672,2.046875e+02,
673,2.031250e+02,
674,2.031250e+02,
675,2.046875e+02,
676,2.046875e+02,
677,2.031250e+02,
678,2.031250e+02,
679,2.062500e+02,
680,2.062500e+02,
681,2.031250e+02,
682,2.031250e+02,
683,2.062500e+02,
684,2.046875e+02,
685,2.062500e+02,
686,2.062500e+02,
687,2.046875e+02,
688,2.046875e+02,
689,2.062500e+02,
690,2.078125e+02,
691,2.046875e+02,
692,2.046875e+02,
693,2.078125e+02,
694,2.062500e+02,
695,2.078125e+02,
696,2.078125e+02,
697,2.062500e+02,
698,2.062500e+02,
699,2.078125e+02,
700,2.093750e+02,
701,2.078125e+02,
702,2.093750e+02,
703,2.078125e+02,
704,2.109375e+02,
705,2.078125e+02,
706,2.093750e+02,
707,2.109375e+02,
708,2.109375e+02,
709,2.093750e+02,
710,2.093750e+02,
711,2.125000e+02,
712,2.109375e+02,
713,2.109375e+02,
714,2.125000e+02,
715,2.109375e+02,
716,2.125000e+02,
717,2.109375e+02,
718,2.109375e+02,
719,2.140625e+02,
720,2.125000e+02,
721,2.140625e+02,
722,2.140625e+02,
723,2.109375e+02,
724,2.140625e+02,
725,2.125000e+02,
726,2.125000e+02,
727,2.156250e+02,
728,2.125000e+02,
729,2.156250e+02,
730,2.156250e+02,
731,2.140625e+02,
732,2.140625e+02,
733,2.171875e+02,
734,2.156250e+02,
735,2.171875e+02,
736,2.171875e+02,
737,2.156250e+02,
738,2.156250e+02,
739,2.187500e+02,
740,2.156250e+02,
741,2.187500e+02,
742,2.171875e+02,
743,2.187500e+02,
744,2.171875e+02,
745,2.203125e+02,
746,2.171875e+02,
747,2.203125e+02,
748,2.203125e+02,
749,2.187500e+02,
750,2.203125e+02,
751,2.187500e+02,
752,2.187500e+02,
753,2.218750e+02,
754,2.203125e+02,
755,2.218750e+02,
756,2.218750e+02,
757,2.203125e+02,
758,2.203125e+02,
759,2.218750e+02,
760,2.234375e+02,
761,2.218750e+02,
762,2.218750e+02,
763,2.234375e+02,
764,2.218750e+02,
765,2.234375e+02,
766,2.218750e+02,
767,2.250000e+02,
768,2.218750e+02,
769,2.250000e+02,
770,2.250000e+02,
771,2.234375e+02,
772,2.250000e+02,
773,2.234375e+02,
774,2.265625e+02,
775,2.234375e+02,
776,2.234375e+02,
777,2.265625e+02,
778,2.250000e+02,
779,2.265625e+02,
780,2.265625e+02,
781,2.250000e+02,
782,2.250000e+02,
783,2.281250e+02,
784,2.250000e+02,
785,2.281250e+02,
786,2.281250e+02,
787,2.265625e+02,
788,2.265625e+02,
789,2.281250e+02,
790,2.281250e+02,
791,2.265625e+02,
792,2.281250e+02,
793,2.265625e+02,
794,2.265625e+02,
795,2.296875e+02,
796,2.281250e+02,
797,2.296875e+02,
798,2.281250e+02,
799,2.296875e+02,
800,2.265625e+02,
801,2.296875e+02,
802,2.296875e+02,
803,2.281250e+02,
804,2.281250e+02,
805,2.312500e+02,
806,2.281250e+02,
807,2.296875e+02,
808,2.281250e+02,
809,2.312500e+02,
810,2.281250e+02,
811,2.312500e+02,
812,2.296875e+02,
813,2.312500e+02,
814,2.296875e+02,
815,2.312500e+02,
816,2.328125e+02,
817,2.296875e+02,
818,2.312500e+02,
819,2.296875e+02,
820,2.312500e+02,
821,2.296875e+02,
822,2.296875e+02,
823,2.328125e+02,
824,2.296875e+02,
825,2.328125e+02,
826,2.312500e+02,
827,2.328125e+02,
828,2.312500e+02,
829,2.343750e+02,
830,2.343750e+02,
831,2.312500e+02,
832,2.312500e+02,
833,2.328125e+02,
834,2.328125e+02,
835,2.343750e+02,
836,2.328125e+02,
837,2.343750e+02,
838,2.343750e+02,
839,2.328125e+02,
840,2.343750e+02,
841,2.328125e+02,
842,2.343750e+02,
843,2.359375e+02,
844,2.359375e+02,
845,2.343750e+02,
846,2.359375e+02,
847,2.343750e+02,
848,2.343750e+02,
849,2.359375e+02,
850,2.359375e+02,
851,2.343750e+02,
852,2.343750e+02,
853,2.359375e+02,
854,2.343750e+02,
855,2.375000e+02,
856,2.375000e+02,
857,2.359375e+02,
858,2.359375e+02,
859,2.375000e+02,
860,2.359375e+02,
861,2.390625e+02,
862,2.359375e+02,
863,2.390625e+02,
864,2.359375e+02,
865,2.390625e+02,
866,2.359375e+02,
867,2.390625e+02,
868,2.375000e+02,
869,2.390625e+02,
870,2.406250e+02,
871,2.375000e+02,
872,2.375000e+02,
873,2.406250e+02,
874,2.375000e+02,
875,2.406250e+02,
876,2.390625e+02,
877,2.406250e+02,
878,2.406250e+02,
879,2.390625e+02,
880,2.406250e+02,
881,2.390625e+02,
882,2.390625e+02,
883,2.406250e+02,
884,2.421875e+02,
885,2.390625e+02,
886,2.406250e+02,
887,2.421875e+02,
888,2.390625e+02,
889,2.421875e+02,
890,2.390625e+02,
891,2.421875e+02,
892,2.421875e+02,
893,2.406250e+02,
894,2.406250e+02,
895,2.437500e+02,
896,2.406250e+02,
897,2.437500e+02,
898,2.406250e+02,
899,2.421875e+02,
900,2.406250e+02,
901,2.421875e+02,
902,2.406250e+02,
903,2.437500e+02,
904,2.437500e+02,
905,2.421875e+02,
906,2.421875e+02,
907,2.437500e+02,
908,2.437500e+02,
909,2.421875e+02,
910,2.437500e+02,
911,2.421875e+02,
912,2.453125e+02,
913,2.421875e+02,
914,2.437500e+02,
915,2.421875e+02,
916,2.437500e+02,
917,2.453125e+02,
918,2.453125e+02,
919,2.437500e+02,
920,2.453125e+02,
921,2.437500e+02,
922,2.453125e+02,
923,2.437500e+02,
924,2.453125e+02,
925,2.437500e+02,
926,2.468750e+02,
927,2.437500e+02,
928,2.437500e+02,
929,2.468750e+02,
930,2.468750e+02,
931,2.453125e+02,
932,2.453125e+02,
933,2.468750e+02,
934,2.437500e+02,
935,2.468750e+02,
936,2.468750e+02,
937,2.453125e+02,
938,2.453125e+02,
939,2.468750e+02,
940,2.468750e+02,
941,2.453125e+02,
942,2.468750e+02,
943,2.453125e+02,
944,2.468750e+02,
945,2.453125e+02,
946,2.468750e+02,
947,2.453125e+02,
948,2.484375e+02,
949,2.453125e+02,
950,2.453125e+02,
951,2.484375e+02,
952,2.453125e+02,
953,2.484375e+02,
954,2.484375e+02,
955,2.468750e+02,
956,2.484375e+02,
957,2.468750e+02,
958,2.484375e+02,
959,2.468750e+02,
960,2.484375e+02,
961,2.468750e+02,
962,2.468750e+02,
963,2.484375e+02,
964,2.468750e+02,
965,2.484375e+02,
966,2.484375e+02,
967,2.468750e+02,
968,2.468750e+02,
969,2.500000e+02,
970,2.468750e+02,
971,2.500000e+02,
972,2.484375e+02,
973,2.500000e+02,
974,2.500000e+02,
975,2.484375e+02,
976,2.500000e+02,
977,2.484375e+02,
978,2.500000e+02,
979,2.484375e+02,
980,2.484375e+02,
981,2.500000e+02,
982,2.500000e+02,
983,2.484375e+02,
984,2.500000e+02,
985,2.484375e+02,
986,2.500000e+02,
987,2.484375e+02,
988,2.484375e+02,
989,2.515625e+02,
990,2.500000e+02,
991,2.484375e+02,
992,2.484375e+02,
993,2.500000e+02,
994,2.484375e+02,
995,2.515625e+02,
996,2.515625e+02,
997,2.500000e+02,
998,2.484375e+02,
999,2.515625e+02,
1000,2.484375e+02,
1001,2.515625e+02,
1002,2.515625e+02,
1003,2.500000e+02,
1004,2.515625e+02,
1005,2.500000e+02,
1006,2.515625e+02,
1007,2.500000e+02,
1008,2.500000e+02,
1009,2.531250e+02,
1010,2.515625e+02,
1011,2.500000e+02,
1012,2.531250e+02,
1013,2.500000e+02,
1014,2.515625e+02,
1015,2.500000e+02,
1016,2.500000e+02,
1017,2.531250e+02,
1018,2.500000e+02,
1019,2.531250e+02,
1020,2.500000e+02,
1021,2.531250e+02,
1022,2.531250e+02,
1023,2.515625e+02,
1024,2.500000e+02,
1025,2.531250e+02,
1026,2.531250e+02,
1027,2.515625e+02,
1028,2.531250e+02,
1029,2.500000e+02,
1030,2.531250e+02,
1031,2.515625e+02,
1032,2.515625e+02,
1033,2.531250e+02,
1034,2.531250e+02,
1035,2.515625e+02,
1036,2.531250e+02,
1037,2.515625e+02,
1038,2.546875e+02,
1039,2.515625e+02,
1040,2.546875e+02,
1041,2.515625e+02,
1042,2.515625e+02,
1043,2.546875e+02,
1044,2.515625e+02,
1045,2.546875e+02,
1046,2.546875e+02,
1047,2.515625e+02,
1048,2.515625e+02,
1049,2.546875e+02,
1050,2.546875e+02,
1051,2.531250e+02,
1052,2.515625e+02,
1053,2.546875e+02,
1054,2.531250e+02,
1055,2.546875e+02,
1056,2.546875e+02,
1057,2.531250e+02,
1058,2.531250e+02,
1059,2.546875e+02,
1060,2.531250e+02,
1061,2.562500e+02,
1062,2.546875e+02,
1063,2.531250e+02,
1064,2.531250e+02,
1065,2.562500e+02,
1066,2.546875e+02,
1067,2.531250e+02,
1068,2.531250e+02,
1069,2.562500e+02,
1070,2.546875e+02,
1071,2.562500e+02,
1072,2.562500e+02,
1073,2.546875e+02,
1074,2.546875e+02,
1075,2.562500e+02,
1076,2.546875e+02,
1077,2.578125e+02,
1078,2.562500e+02,
1079,2.546875e+02,
1080,2.546875e+02,
1081,2.578125e+02,
1082,2.546875e+02,
1083,2.578125e+02,
1084,2.562500e+02,
1085,2.578125e+02,
1086,2.546875e+02,
1087,2.578125e+02,
1088,2.578125e+02,
1089,2.562500e+02,
1090,2.578125e+02,
1091,2.562500e+02,
1092,2.562500e+02,
1093,2.578125e+02,
1094,2.578125e+02,
1095,2.546875e+02,
1096,2.578125e+02,
1097,2.562500e+02,
1098,2.593750e+02,
1099,2.562500e+02,
1100,2.593750e+02,
1101,2.562500e+02,
1102,2.562500e+02,
1103,2.593750e+02,
1104,2.578125e+02,
