vault/proyectos/lab4_1/Informe_de_Laboratorio_Metrología_Exp4/NewDirectory2/NewDirectory1/NewDirectory1/Newfile2.csv

X,CH1,CH2,Start,Increment,
Sequence,Volt,Volt,-3.500000e-02,5.000000e-05,
0,7.250000e+00,-1.000000e+00,
1,6.937500e+00,-8.125000e-01,
2,7.000000e+00,-8.750000e-01,
3,7.250000e+00,-1.062500e+00,
4,6.937500e+00,-8.750000e-01,
5,7.250000e+00,-1.125000e+00,
6,7.187500e+00,-9.375000e-01,
7,6.937500e+00,-1.125000e+00,
8,7.187500e+00,-9.375000e-01,
9,6.875000e+00,-1.187500e+00,
10,7.125000e+00,-1.000000e+00,
11,6.875000e+00,-1.187500e+00,
12,7.125000e+00,-1.000000e+00,
13,6.812500e+00,-1.250000e+00,
14,7.062500e+00,-1.062500e+00,
15,6.750000e+00,-1.250000e+00,
16,7.000000e+00,-1.062500e+00,
17,6.687500e+00,-1.250000e+00,
18,6.937500e+00,-1.125000e+00,
19,6.625000e+00,-1.312500e+00,
20,6.875000e+00,-1.125000e+00,
21,6.562500e+00,-1.312500e+00,
22,6.812500e+00,-1.312500e+00,
23,6.500000e+00,-1.125000e+00,
24,6.750000e+00,-1.187500e+00,
25,6.437500e+00,-1.375000e+00,
26,6.625000e+00,-1.187500e+00,
27,6.312500e+00,-1.375000e+00,
28,6.562500e+00,-1.375000e+00,
29,6.250000e+00,-1.187500e+00,
30,6.437500e+00,-1.187500e+00,
31,6.125000e+00,-1.437500e+00,
32,6.375000e+00,-1.250000e+00,
33,6.000000e+00,-1.437500e+00,
34,6.250000e+00,-1.437500e+00,
35,5.875000e+00,-1.250000e+00,
36,6.125000e+00,-1.437500e+00,
37,5.750000e+00,-1.250000e+00,
38,6.000000e+00,-1.250000e+00,
39,5.687500e+00,-1.500000e+00,
40,5.875000e+00,-1.500000e+00,
41,5.562500e+00,-1.250000e+00,
42,5.750000e+00,-1.312500e+00,
43,5.375000e+00,-1.500000e+00,
44,5.625000e+00,-1.312500e+00,
45,5.250000e+00,-1.500000e+00,
46,5.500000e+00,-1.500000e+00,
47,5.125000e+00,-1.312500e+00,
48,5.312500e+00,-1.312500e+00,
49,4.937500e+00,-1.500000e+00,
50,5.187500e+00,-1.500000e+00,
51,4.812500e+00,-1.312500e+00,
52,5.000000e+00,-1.312500e+00,
53,4.625000e+00,-1.562500e+00,
54,4.875000e+00,-1.500000e+00,
55,4.437500e+00,-1.312500e+00,
56,4.687500e+00,-1.500000e+00,
57,4.250000e+00,-1.312500e+00,
58,4.500000e+00,-1.500000e+00,
59,4.125000e+00,-1.312500e+00,
60,4.312500e+00,-1.500000e+00,
61,3.937500e+00,-1.312500e+00,
62,4.125000e+00,-1.500000e+00,
63,3.750000e+00,-1.312500e+00,
64,4.000000e+00,-1.500000e+00,
65,3.562500e+00,-1.312500e+00,
66,3.750000e+00,-1.500000e+00,
67,3.375000e+00,-1.312500e+00,
68,3.562500e+00,-1.312500e+00,
69,3.187500e+00,-1.500000e+00,
70,3.375000e+00,-1.312500e+00,
71,2.937500e+00,-1.500000e+00,
72,3.187500e+00,-1.437500e+00,
73,2.750000e+00,-1.250000e+00,
74,3.000000e+00,-1.437500e+00,
75,2.562500e+00,-1.250000e+00,
76,2.750000e+00,-1.437500e+00,
77,2.375000e+00,-1.250000e+00,
78,2.562500e+00,-1.437500e+00,
79,2.125000e+00,-1.250000e+00,
80,2.375000e+00,-1.250000e+00,
81,1.937500e+00,-1.437500e+00,
82,2.125000e+00,-1.375000e+00,
83,1.750000e+00,-1.187500e+00,
84,1.937500e+00,-1.375000e+00,
85,1.500000e+00,-1.187500e+00,
86,1.687500e+00,-1.187500e+00,
87,1.312500e+00,-1.375000e+00,
88,1.500000e+00,-1.312500e+00,
89,1.062500e+00,-1.125000e+00,
90,1.250000e+00,-1.312500e+00,
91,8.750000e-01,-1.125000e+00,
92,1.062500e+00,-1.125000e+00,
93,6.250000e-01,-1.312500e+00,
94,8.750000e-01,-1.250000e+00,
95,3.750000e-01,-1.062500e+00,
96,6.250000e-01,-1.250000e+00,
97,1.875000e-01,-1.062500e+00,
98,3.750000e-01,-1.187500e+00,
99,-6.250000e-02,-1.000000e+00,
100,1.875000e-01,-1.187500e+00,
101,-2.500000e-01,-1.000000e+00,
102,-6.250000e-02,-1.187500e+00,
103,-5.000000e-01,-9.375000e-01,
104,-3.125000e-01,-1.125000e+00,
105,-7.500000e-01,-9.375000e-01,
106,-5.000000e-01,-1.125000e+00,
107,-9.375000e-01,-8.750000e-01,
108,-7.500000e-01,-1.062500e+00,
109,-1.187500e+00,-8.750000e-01,
110,-9.375000e-01,-1.000000e+00,
111,-1.375000e+00,-8.125000e-01,
112,-1.187500e+00,-1.000000e+00,
113,-1.562500e+00,-8.125000e-01,
114,-1.375000e+00,-9.375000e-01,
115,-1.812500e+00,-7.500000e-01,
116,-1.625000e+00,-9.375000e-01,
117,-2.000000e+00,-7.500000e-01,
118,-1.812500e+00,-8.750000e-01,
119,-2.250000e+00,-6.875000e-01,
120,-2.062500e+00,-8.750000e-01,
121,-2.437500e+00,-6.250000e-01,
122,-2.250000e+00,-8.125000e-01,
123,-2.625000e+00,-6.250000e-01,
124,-2.500000e+00,-7.500000e-01,
125,-2.875000e+00,-5.625000e-01,
126,-2.687500e+00,-7.500000e-01,
127,-3.062500e+00,-5.000000e-01,
128,-2.875000e+00,-6.875000e-01,
129,-3.250000e+00,-5.000000e-01,
130,-3.062500e+00,-6.875000e-01,
131,-3.437500e+00,-4.375000e-01,
132,-3.250000e+00,-6.250000e-01,
133,-3.687500e+00,-3.750000e-01,
134,-3.437500e+00,-5.625000e-01,
135,-3.875000e+00,-3.750000e-01,
136,-3.625000e+00,-5.000000e-01,
137,-4.062500e+00,-3.125000e-01,
138,-3.812500e+00,-5.000000e-01,
139,-4.250000e+00,-2.500000e-01,
140,-4.000000e+00,-4.375000e-01,
141,-4.375000e+00,-2.500000e-01,
142,-4.187500e+00,-3.750000e-01,
143,-4.562500e+00,-1.875000e-01,
144,-4.375000e+00,-3.750000e-01,
145,-4.812500e+00,-1.250000e-01,
146,-4.500000e+00,-3.125000e-01,
147,-4.937500e+00,-1.250000e-01,
148,-4.750000e+00,-2.500000e-01,
149,-5.125000e+00,-6.250000e-02,
150,-4.875000e+00,-2.500000e-01,
151,-5.250000e+00,0.000000e+00,
152,-5.000000e+00,-1.875000e-01,
153,-5.437500e+00,6.250000e-02,
154,-5.187500e+00,-1.250000e-01,
155,-5.562500e+00,6.250000e-02,
156,-5.312500e+00,-6.250000e-02,
157,-5.687500e+00,1.250000e-01,
158,-5.437500e+00,-6.250000e-02,
159,-5.812500e+00,1.875000e-01,
160,-5.625000e+00,0.000000e+00,
161,-5.937500e+00,2.500000e-01,
162,-5.750000e+00,6.250000e-02,
163,-6.062500e+00,2.500000e-01,
164,-5.875000e+00,1.250000e-01,
165,-6.187500e+00,3.125000e-01,
166,-6.000000e+00,1.250000e-01,
167,-6.312500e+00,3.750000e-01,
168,-6.062500e+00,1.875000e-01,
169,-6.375000e+00,3.750000e-01,
170,-6.187500e+00,2.500000e-01,
171,-6.500000e+00,4.375000e-01,
172,-6.312500e+00,4.375000e-01,
173,-6.625000e+00,2.500000e-01,
174,-6.375000e+00,3.125000e-01,
175,-6.687500e+00,5.000000e-01,
176,-6.437500e+00,3.750000e-01,
177,-6.750000e+00,5.625000e-01,
178,-6.562500e+00,3.750000e-01,
179,-6.812500e+00,6.250000e-01,
180,-6.625000e+00,4.375000e-01,
181,-6.875000e+00,6.250000e-01,
182,-6.687500e+00,5.000000e-01,
183,-6.937500e+00,6.875000e-01,
184,-6.750000e+00,5.000000e-01,
185,-7.000000e+00,7.500000e-01,
186,-6.812500e+00,5.625000e-01,
187,-7.062500e+00,7.500000e-01,
188,-6.875000e+00,6.250000e-01,
189,-7.062500e+00,8.125000e-01,
190,-6.875000e+00,8.125000e-01,
191,-7.125000e+00,6.250000e-01,
192,-6.937500e+00,6.875000e-01,
193,-7.125000e+00,8.750000e-01,
194,-6.937500e+00,7.500000e-01,
195,-7.187500e+00,9.375000e-01,
196,-6.937500e+00,7.500000e-01,
197,-7.187500e+00,9.375000e-01,
198,-7.187500e+00,8.125000e-01,
199,-6.937500e+00,1.000000e+00,
200,-7.187500e+00,1.000000e+00,
201,-6.937500e+00,8.125000e-01,
202,-7.187500e+00,8.750000e-01,
203,-6.937500e+00,1.062500e+00,
204,-6.937500e+00,1.062500e+00,
205,-7.187500e+00,8.750000e-01,
206,-7.125000e+00,9.375000e-01,
207,-6.937500e+00,1.125000e+00,
208,-7.125000e+00,1.125000e+00,
209,-6.875000e+00,9.375000e-01,
210,-6.875000e+00,1.000000e+00,
211,-7.125000e+00,1.187500e+00,
212,-7.062500e+00,1.000000e+00,
213,-6.812500e+00,1.250000e+00,
214,-7.000000e+00,1.062500e+00,
215,-6.750000e+00,1.250000e+00,
216,-6.937500e+00,1.062500e+00,
217,-6.687500e+00,1.250000e+00,
218,-6.875000e+00,1.125000e+00,
219,-6.625000e+00,1.312500e+00,
220,-6.812500e+00,1.125000e+00,
221,-6.562500e+00,1.312500e+00,
222,-6.750000e+00,1.312500e+00,
223,-6.500000e+00,1.125000e+00,
224,-6.687500e+00,1.312500e+00,
225,-6.375000e+00,1.187500e+00,
226,-6.625000e+00,1.187500e+00,
227,-6.312500e+00,1.375000e+00,
228,-6.500000e+00,1.375000e+00,
229,-6.250000e+00,1.187500e+00,
230,-6.437500e+00,1.250000e+00,
231,-6.125000e+00,1.375000e+00,
232,-6.312500e+00,1.250000e+00,
233,-6.000000e+00,1.437500e+00,
234,-6.187500e+00,1.437500e+00,
235,-5.875000e+00,1.250000e+00,
236,-6.062500e+00,1.437500e+00,
237,-5.750000e+00,1.250000e+00,
238,-5.937500e+00,1.312500e+00,
239,-5.625000e+00,1.437500e+00,
240,-5.812500e+00,1.312500e+00,
241,-5.500000e+00,1.500000e+00,
242,-5.687500e+00,1.312500e+00,
243,-5.375000e+00,1.500000e+00,
244,-5.562500e+00,1.500000e+00,
245,-5.187500e+00,1.312500e+00,
246,-5.437500e+00,1.500000e+00,
247,-5.062500e+00,1.312500e+00,
248,-5.312500e+00,1.500000e+00,
249,-4.937500e+00,1.312500e+00,
250,-5.125000e+00,1.500000e+00,
251,-4.750000e+00,1.312500e+00,
252,-4.937500e+00,1.500000e+00,
253,-4.562500e+00,1.312500e+00,
254,-4.812500e+00,1.500000e+00,
255,-4.375000e+00,1.312500e+00,
256,-4.625000e+00,1.500000e+00,
257,-4.250000e+00,1.312500e+00,
258,-4.500000e+00,1.500000e+00,
259,-4.062500e+00,1.312500e+00,
260,-4.250000e+00,1.500000e+00,
261,-3.875000e+00,1.312500e+00,
262,-4.125000e+00,1.500000e+00,
263,-3.687500e+00,1.312500e+00,
264,-3.937500e+00,1.500000e+00,
265,-3.500000e+00,1.312500e+00,
266,-3.750000e+00,1.500000e+00,
267,-3.312500e+00,1.312500e+00,
268,-3.562500e+00,1.312500e+00,
269,-3.125000e+00,1.500000e+00,
270,-3.312500e+00,1.312500e+00,
271,-2.937500e+00,1.500000e+00,
272,-3.125000e+00,1.312500e+00,
273,-2.750000e+00,1.500000e+00,
274,-2.937500e+00,1.437500e+00,
275,-2.562500e+00,1.312500e+00,
276,-2.750000e+00,1.437500e+00,
277,-2.312500e+00,1.250000e+00,
278,-2.500000e+00,1.250000e+00,
279,-2.125000e+00,1.437500e+00,
280,-2.312500e+00,1.375000e+00,
281,-1.875000e+00,1.250000e+00,
282,-2.062500e+00,1.375000e+00,
283,-1.687500e+00,1.187500e+00,
284,-1.875000e+00,1.375000e+00,
285,-1.437500e+00,1.187500e+00,
286,-1.625000e+00,1.187500e+00,
287,-1.250000e+00,1.375000e+00,
288,-1.437500e+00,1.312500e+00,
289,-1.062500e+00,1.125000e+00,
290,-1.250000e+00,1.312500e+00,
291,-8.125000e-01,1.125000e+00,
292,-1.000000e+00,1.125000e+00,
293,-5.625000e-01,1.312500e+00,
294,-8.125000e-01,1.250000e+00,
295,-3.750000e-01,1.062500e+00,
296,-5.625000e-01,1.062500e+00,
297,-1.250000e-01,1.250000e+00,
298,-3.125000e-01,1.187500e+00,
299,1.250000e-01,1.000000e+00,
300,-1.250000e-01,1.187500e+00,
301,3.125000e-01,1.000000e+00,
302,1.250000e-01,1.125000e+00,
303,5.625000e-01,9.375000e-01,
304,3.750000e-01,1.125000e+00,
305,7.500000e-01,9.375000e-01,
306,5.625000e-01,1.062500e+00,
307,1.000000e+00,8.750000e-01,
308,8.125000e-01,1.062500e+00,
309,1.187500e+00,8.750000e-01,
310,1.000000e+00,1.000000e+00,
311,1.437500e+00,8.125000e-01,
312,1.187500e+00,1.000000e+00,
313,1.687500e+00,8.125000e-01,
314,1.437500e+00,9.375000e-01,
315,1.875000e+00,7.500000e-01,
316,1.625000e+00,9.375000e-01,
317,2.062500e+00,7.500000e-01,
318,1.875000e+00,8.750000e-01,
319,2.312500e+00,6.875000e-01,
320,2.062500e+00,8.125000e-01,
321,2.500000e+00,6.250000e-01,
322,2.312500e+00,6.250000e-01,
323,2.687500e+00,8.125000e-01,
324,2.500000e+00,7.500000e-01,
325,2.937500e+00,5.625000e-01,
326,2.687500e+00,5.625000e-01,
327,3.125000e+00,7.500000e-01,
328,2.937500e+00,6.875000e-01,
329,3.312500e+00,5.000000e-01,
330,3.125000e+00,6.250000e-01,
331,3.500000e+00,4.375000e-01,
332,3.312500e+00,4.375000e-01,
333,3.687500e+00,6.250000e-01,
334,3.500000e+00,5.625000e-01,
335,3.875000e+00,3.750000e-01,
336,3.687500e+00,5.000000e-01,
337,4.062500e+00,3.125000e-01,
338,3.875000e+00,5.000000e-01,
339,4.250000e+00,2.500000e-01,
340,4.062500e+00,4.375000e-01,
341,4.437500e+00,2.500000e-01,
342,4.187500e+00,3.750000e-01,
343,4.625000e+00,1.875000e-01,
344,4.375000e+00,3.750000e-01,
345,4.812500e+00,1.250000e-01,
346,4.562500e+00,3.125000e-01,
347,4.937500e+00,1.250000e-01,
348,4.750000e+00,2.500000e-01,
349,5.125000e+00,6.250000e-02,
350,4.875000e+00,1.875000e-01,
351,5.250000e+00,0.000000e+00,
352,5.062500e+00,1.875000e-01,
353,5.437500e+00,-6.250000e-02,
354,5.187500e+00,1.250000e-01,
355,5.562500e+00,-6.250000e-02,
356,5.375000e+00,6.250000e-02,
357,5.687500e+00,-1.250000e-01,
358,5.500000e+00,6.250000e-02,
359,5.812500e+00,-1.875000e-01,
360,5.625000e+00,0.000000e+00,
361,5.937500e+00,-2.500000e-01,
362,5.750000e+00,-6.250000e-02,
363,6.062500e+00,-2.500000e-01,
364,5.875000e+00,-1.250000e-01,
365,6.187500e+00,-3.125000e-01,
366,6.000000e+00,-1.250000e-01,
367,6.312500e+00,-3.750000e-01,
368,6.125000e+00,-1.875000e-01,
369,6.437500e+00,-3.750000e-01,
370,6.187500e+00,-2.500000e-01,
371,6.562500e+00,-4.375000e-01,
372,6.312500e+00,-2.500000e-01,
373,6.625000e+00,-5.000000e-01,
374,6.375000e+00,-3.125000e-01,
375,6.687500e+00,-5.000000e-01,
376,6.500000e+00,-3.750000e-01,
377,6.812500e+00,-5.625000e-01,
378,6.562500e+00,-3.750000e-01,
379,6.875000e+00,-6.250000e-01,
380,6.625000e+00,-4.375000e-01,
381,6.937500e+00,-6.875000e-01,
382,6.687500e+00,-4.375000e-01,
383,7.000000e+00,-6.875000e-01,
384,6.750000e+00,-5.000000e-01,
385,7.062500e+00,-7.500000e-01,
386,6.812500e+00,-5.625000e-01,
387,7.125000e+00,-7.500000e-01,
388,6.875000e+00,-6.250000e-01,
389,7.125000e+00,-8.125000e-01,
390,6.875000e+00,-6.250000e-01,
391,7.187500e+00,-8.750000e-01,
392,6.937500e+00,-6.875000e-01,
393,7.187500e+00,-8.750000e-01,
394,7.187500e+00,-6.875000e-01,
395,6.937500e+00,-9.375000e-01,
396,6.937500e+00,-7.500000e-01,
397,7.250000e+00,-9.375000e-01,
398,7.000000e+00,-8.125000e-01,
399,7.250000e+00,-1.000000e+00,
400,7.250000e+00,-8.125000e-01,
401,6.937500e+00,-1.062500e+00,
402,7.250000e+00,-8.750000e-01,
403,6.937500e+00,-1.062500e+00,
404,6.937500e+00,-8.750000e-01,
405,7.250000e+00,-1.125000e+00,
406,7.187500e+00,-9.375000e-01,
407,6.937500e+00,-1.125000e+00,
408,7.187500e+00,-9.375000e-01,
409,6.875000e+00,-1.187500e+00,
410,7.125000e+00,-1.000000e+00,
411,6.875000e+00,-1.187500e+00,
412,7.125000e+00,-1.000000e+00,
413,6.812500e+00,-1.250000e+00,
414,7.062500e+00,-1.062500e+00,
415,6.750000e+00,-1.250000e+00,
416,6.750000e+00,-1.250000e+00,
417,7.062500e+00,-1.062500e+00,
418,7.000000e+00,-1.125000e+00,
419,6.625000e+00,-1.312500e+00,
420,6.875000e+00,-1.125000e+00,
421,6.562500e+00,-1.312500e+00,
422,6.812500e+00,-1.125000e+00,
423,6.500000e+00,-1.375000e+00,
424,6.750000e+00,-1.187500e+00,
425,6.437500e+00,-1.375000e+00,
426,6.625000e+00,-1.375000e+00,
427,6.312500e+00,-1.187500e+00,
428,6.562500e+00,-1.375000e+00,
429,6.250000e+00,-1.187500e+00,
430,6.500000e+00,-1.187500e+00,
431,6.125000e+00,-1.437500e+00,
432,6.375000e+00,-1.250000e+00,
433,6.000000e+00,-1.437500e+00,
434,6.250000e+00,-1.250000e+00,
435,5.875000e+00,-1.437500e+00,
436,6.125000e+00,-1.437500e+00,
437,5.812500e+00,-1.250000e+00,
438,6.000000e+00,-1.250000e+00,
439,5.625000e+00,-1.500000e+00,
440,5.875000e+00,-1.500000e+00,
441,5.500000e+00,-1.250000e+00,
442,5.750000e+00,-1.312500e+00,
443,5.375000e+00,-1.500000e+00,
444,5.625000e+00,-1.312500e+00,
445,5.250000e+00,-1.500000e+00,
446,5.500000e+00,-1.500000e+00,
447,5.125000e+00,-1.312500e+00,
448,5.312500e+00,-1.500000e+00,
449,4.937500e+00,-1.312500e+00,
450,5.125000e+00,-1.500000e+00,
451,4.812500e+00,-1.312500e+00,
452,5.000000e+00,-1.312500e+00,
453,4.625000e+00,-1.562500e+00,
454,4.875000e+00,-1.312500e+00,
455,4.437500e+00,-1.562500e+00,
456,4.687500e+00,-1.312500e+00,
457,4.312500e+00,-1.562500e+00,
458,4.500000e+00,-1.312500e+00,
459,4.125000e+00,-1.562500e+00,
460,4.312500e+00,-1.312500e+00,
461,3.937500e+00,-1.562500e+00,
462,4.125000e+00,-1.500000e+00,
463,3.750000e+00,-1.312500e+00,
464,3.937500e+00,-1.500000e+00,
465,3.562500e+00,-1.312500e+00,
466,3.750000e+00,-1.500000e+00,
467,3.375000e+00,-1.312500e+00,
468,3.562500e+00,-1.312500e+00,
469,3.187500e+00,-1.500000e+00,
470,3.375000e+00,-1.500000e+00,
471,3.000000e+00,-1.250000e+00,
472,3.187500e+00,-1.500000e+00,
473,2.750000e+00,-1.250000e+00,
474,3.000000e+00,-1.437500e+00,
475,2.562500e+00,-1.250000e+00,
476,2.812500e+00,-1.437500e+00,
477,2.375000e+00,-1.250000e+00,
478,2.625000e+00,-1.250000e+00,
479,2.125000e+00,-1.437500e+00,
480,2.375000e+00,-1.437500e+00,
481,1.937500e+00,-1.187500e+00,
482,2.125000e+00,-1.375000e+00,
483,1.687500e+00,-1.187500e+00,
484,1.937500e+00,-1.375000e+00,
485,1.500000e+00,-1.187500e+00,
486,1.687500e+00,-1.187500e+00,
487,1.312500e+00,-1.375000e+00,
488,1.500000e+00,-1.375000e+00,
489,1.062500e+00,-1.125000e+00,
490,1.250000e+00,-1.312500e+00,
491,8.750000e-01,-1.125000e+00,
492,1.062500e+00,-1.125000e+00,
493,6.250000e-01,-1.312500e+00,
494,8.125000e-01,-1.250000e+00,
495,3.750000e-01,-1.062500e+00,
496,6.250000e-01,-1.250000e+00,
497,1.875000e-01,-1.062500e+00,
498,3.750000e-01,-1.187500e+00,
499,-6.250000e-02,-1.000000e+00,
500,1.875000e-01,-1.187500e+00,
501,-2.500000e-01,-1.000000e+00,
502,-6.250000e-02,-1.187500e+00,
503,-5.000000e-01,-9.375000e-01,
504,-3.125000e-01,-1.125000e+00,
505,-6.875000e-01,-9.375000e-01,
506,-5.000000e-01,-1.125000e+00,
507,-9.375000e-01,-8.750000e-01,
508,-7.500000e-01,-1.062500e+00,
509,-1.187500e+00,-8.750000e-01,
510,-9.375000e-01,-1.000000e+00,
511,-1.375000e+00,-8.125000e-01,
512,-1.187500e+00,-8.125000e-01,
513,-1.562500e+00,-1.000000e+00,
514,-1.375000e+00,-9.375000e-01,
515,-1.812500e+00,-7.500000e-01,
516,-1.625000e+00,-9.375000e-01,
517,-2.000000e+00,-6.875000e-01,
518,-1.812500e+00,-8.750000e-01,
519,-2.250000e+00,-6.875000e-01,
520,-2.000000e+00,-8.750000e-01,
521,-2.437500e+00,-6.250000e-01,
522,-2.250000e+00,-8.125000e-01,
523,-2.625000e+00,-6.250000e-01,
524,-2.437500e+00,-7.500000e-01,
525,-2.875000e+00,-5.625000e-01,
526,-2.687500e+00,-7.500000e-01,
527,-3.062500e+00,-5.000000e-01,
528,-2.875000e+00,-6.875000e-01,
529,-3.312500e+00,-5.000000e-01,
530,-3.062500e+00,-4.375000e-01,
531,-3.437500e+00,-6.875000e-01,
532,-3.250000e+00,-6.250000e-01,
533,-3.625000e+00,-3.750000e-01,
534,-3.437500e+00,-5.625000e-01,
535,-3.875000e+00,-3.750000e-01,
536,-3.625000e+00,-5.625000e-01,
537,-4.062500e+00,-3.125000e-01,
538,-3.812500e+00,-5.000000e-01,
539,-4.250000e+00,-2.500000e-01,
540,-4.000000e+00,-4.375000e-01,
541,-4.375000e+00,-2.500000e-01,
542,-4.187500e+00,-3.750000e-01,
543,-4.625000e+00,-1.875000e-01,
544,-4.375000e+00,-3.750000e-01,
545,-4.750000e+00,-1.250000e-01,
546,-4.562500e+00,-3.125000e-01,
547,-4.937500e+00,-1.250000e-01,
548,-4.687500e+00,-2.500000e-01,
549,-5.125000e+00,-6.250000e-02,
550,-4.875000e+00,-2.500000e-01,
551,-5.250000e+00,0.000000e+00,
552,-5.062500e+00,-1.875000e-01,
553,-5.375000e+00,6.250000e-02,
554,-5.187500e+00,6.250000e-02,
555,-5.562500e+00,-1.250000e-01,
556,-5.312500e+00,-6.250000e-02,
557,-5.687500e+00,1.250000e-01,
558,-5.437500e+00,-6.250000e-02,
559,-5.812500e+00,1.875000e-01,
560,-5.625000e+00,0.000000e+00,
561,-5.937500e+00,2.500000e-01,
562,-5.750000e+00,6.250000e-02,
563,-6.062500e+00,2.500000e-01,
564,-5.875000e+00,1.250000e-01,
565,-6.187500e+00,3.125000e-01,
566,-6.000000e+00,1.875000e-01,
567,-6.312500e+00,3.750000e-01,
568,-6.062500e+00,1.875000e-01,
569,-6.375000e+00,3.750000e-01,
570,-6.187500e+00,2.500000e-01,
571,-6.500000e+00,4.375000e-01,
572,-6.312500e+00,2.500000e-01,
573,-6.562500e+00,5.000000e-01,
574,-6.375000e+00,3.125000e-01,
575,-6.687500e+00,5.625000e-01,
576,-6.437500e+00,3.750000e-01,
577,-6.750000e+00,5.625000e-01,
578,-6.562500e+00,5.625000e-01,
579,-6.812500e+00,3.750000e-01,
580,-6.625000e+00,4.375000e-01,
581,-6.875000e+00,6.250000e-01,
582,-6.687500e+00,5.000000e-01,
583,-6.937500e+00,6.875000e-01,
584,-6.750000e+00,5.625000e-01,
585,-7.000000e+00,6.875000e-01,
586,-6.812500e+00,5.625000e-01,
587,-7.062500e+00,7.500000e-01,
588,-7.062500e+00,6.250000e-01,
589,-6.812500e+00,8.125000e-01,
590,-6.875000e+00,6.250000e-01,
591,-7.125000e+00,8.750000e-01,
592,-6.937500e+00,6.875000e-01,
593,-7.125000e+00,8.750000e-01,
594,-6.937500e+00,7.500000e-01,
595,-7.187500e+00,9.375000e-01,
596,-6.937500e+00,9.375000e-01,
597,-7.187500e+00,7.500000e-01,
598,-7.187500e+00,8.125000e-01,
599,-6.937500e+00,1.000000e+00,
600,-7.000000e+00,1.000000e+00,
601,-7.187500e+00,8.125000e-01,
602,-7.187500e+00,8.750000e-01,
603,-6.937500e+00,1.062500e+00,
604,-6.937500e+00,1.062500e+00,
605,-7.187500e+00,8.750000e-01,
606,-6.937500e+00,9.375000e-01,
607,-7.187500e+00,1.125000e+00,
608,-7.125000e+00,1.125000e+00,
609,-6.875000e+00,9.375000e-01,
610,-7.125000e+00,1.000000e+00,
611,-6.812500e+00,1.187500e+00,
612,-7.062500e+00,1.187500e+00,
613,-6.812500e+00,1.000000e+00,
614,-7.062500e+00,1.062500e+00,
615,-6.750000e+00,1.250000e+00,
616,-6.937500e+00,1.062500e+00,
617,-6.687500e+00,1.250000e+00,
618,-6.937500e+00,1.125000e+00,
619,-6.625000e+00,1.312500e+00,
620,-6.812500e+00,1.125000e+00,
621,-6.562500e+00,1.312500e+00,
622,-6.750000e+00,1.312500e+00,
623,-6.500000e+00,1.125000e+00,
