vault/proyectos/lab4_1/Informe_de_Laboratorio_Metrología_Exp4/NewDirectory2/NewDirectory1/NewDirectory1/Newfile1.csv

X,CH1,CH2,Start,Increment,
Sequence,Volt,Volt,-3.500000e-02,5.000000e-05,
0,7.343750e+00,-7.812500e-01,
1,6.875000e+00,-1.406250e+00,
2,7.343750e+00,-1.250000e+00,
3,6.875000e+00,-7.812500e-01,
4,7.343750e+00,-7.812500e-01,
5,6.718750e+00,-1.406250e+00,
6,7.343750e+00,-9.375000e-01,
7,6.718750e+00,-1.406250e+00,
8,6.718750e+00,-9.375000e-01,
9,7.343750e+00,-1.406250e+00,
10,7.187500e+00,-9.375000e-01,
11,6.718750e+00,-1.406250e+00,
12,6.718750e+00,-1.406250e+00,
13,7.187500e+00,-9.375000e-01,
14,7.187500e+00,-9.375000e-01,
15,6.562500e+00,-1.406250e+00,
16,7.031250e+00,-1.562500e+00,
17,6.562500e+00,-9.375000e-01,
18,7.031250e+00,-1.093750e+00,
19,6.406250e+00,-1.562500e+00,
20,6.406250e+00,-1.562500e+00,
21,7.031250e+00,-1.093750e+00,
22,6.875000e+00,-1.562500e+00,
23,6.250000e+00,-1.093750e+00,
24,6.250000e+00,-1.562500e+00,
25,6.875000e+00,-1.093750e+00,
26,6.718750e+00,-1.562500e+00,
27,6.093750e+00,-1.093750e+00,
28,6.562500e+00,-1.093750e+00,
29,5.937500e+00,-1.718750e+00,
30,5.937500e+00,-1.093750e+00,
31,6.562500e+00,-1.718750e+00,
32,6.406250e+00,-1.718750e+00,
33,5.781250e+00,-1.093750e+00,
34,6.250000e+00,-1.718750e+00,
35,5.625000e+00,-1.093750e+00,
36,6.093750e+00,-1.718750e+00,
37,5.468750e+00,-1.093750e+00,
38,5.468750e+00,-1.718750e+00,
39,6.093750e+00,-1.093750e+00,
40,5.937500e+00,-1.250000e+00,
41,5.312500e+00,-1.718750e+00,
42,5.781250e+00,-1.718750e+00,
43,5.156250e+00,-1.250000e+00,
44,5.625000e+00,-1.250000e+00,
45,5.000000e+00,-1.718750e+00,
46,5.468750e+00,-1.718750e+00,
47,4.843750e+00,-1.250000e+00,
48,5.312500e+00,-1.250000e+00,
49,4.687500e+00,-1.718750e+00,
50,5.156250e+00,-1.718750e+00,
51,4.531250e+00,-1.250000e+00,
52,5.000000e+00,-1.718750e+00,
53,4.375000e+00,-1.250000e+00,
54,4.843750e+00,-1.718750e+00,
55,4.218750e+00,-1.250000e+00,
56,4.687500e+00,-1.718750e+00,
57,3.906250e+00,-1.250000e+00,
58,4.531250e+00,-1.718750e+00,
59,3.750000e+00,-1.250000e+00,
60,4.218750e+00,-1.718750e+00,
61,3.593750e+00,-1.250000e+00,
62,4.062500e+00,-1.718750e+00,
63,3.437500e+00,-1.250000e+00,
64,3.906250e+00,-1.718750e+00,
65,3.281250e+00,-1.250000e+00,
66,3.750000e+00,-1.718750e+00,
67,2.968750e+00,-1.250000e+00,
68,3.593750e+00,-1.250000e+00,
69,2.812500e+00,-1.718750e+00,
70,3.281250e+00,-1.250000e+00,
71,2.656250e+00,-1.718750e+00,
72,3.125000e+00,-1.718750e+00,
73,2.500000e+00,-1.093750e+00,
74,2.812500e+00,-1.250000e+00,
75,2.187500e+00,-1.718750e+00,
76,2.656250e+00,-1.718750e+00,
77,2.031250e+00,-1.093750e+00,
78,2.500000e+00,-1.562500e+00,
79,1.875000e+00,-1.093750e+00,
80,2.343750e+00,-1.093750e+00,
81,1.562500e+00,-1.718750e+00,
82,2.031250e+00,-1.562500e+00,
83,1.406250e+00,-1.093750e+00,
84,1.718750e+00,-1.562500e+00,
85,1.093750e+00,-1.093750e+00,
86,1.562500e+00,-1.093750e+00,
87,9.375000e-01,-1.562500e+00,
88,1.406250e+00,-1.093750e+00,
89,7.812500e-01,-1.562500e+00,
90,1.093750e+00,-1.093750e+00,
91,4.687500e-01,-1.562500e+00,
92,9.375000e-01,-1.406250e+00,
93,3.125000e-01,-9.375000e-01,
94,7.812500e-01,-1.406250e+00,
95,0.000000e+00,-9.375000e-01,
96,4.687500e-01,-1.406250e+00,
97,-1.562500e-01,-9.375000e-01,
98,3.125000e-01,-1.406250e+00,
99,-4.687500e-01,-9.375000e-01,
100,0.000000e+00,-9.375000e-01,
101,-6.250000e-01,-1.406250e+00,
102,-1.562500e-01,-1.406250e+00,
103,-9.375000e-01,-7.812500e-01,
104,-4.687500e-01,-1.250000e+00,
105,-1.093750e+00,-7.812500e-01,
106,-6.250000e-01,-1.250000e+00,
107,-1.250000e+00,-7.812500e-01,
108,-9.375000e-01,-1.250000e+00,
109,-1.562500e+00,-7.812500e-01,
110,-1.093750e+00,-7.812500e-01,
111,-1.718750e+00,-1.250000e+00,
112,-1.250000e+00,-7.812500e-01,
113,-2.031250e+00,-1.250000e+00,
114,-1.562500e+00,-1.093750e+00,
115,-2.187500e+00,-6.250000e-01,
116,-1.718750e+00,-1.093750e+00,
117,-2.500000e+00,-6.250000e-01,
118,-1.875000e+00,-1.093750e+00,
119,-2.656250e+00,-6.250000e-01,
120,-2.187500e+00,-1.093750e+00,
121,-2.812500e+00,-4.687500e-01,
122,-2.343750e+00,-4.687500e-01,
123,-3.125000e+00,-1.093750e+00,
124,-2.656250e+00,-9.375000e-01,
125,-3.281250e+00,-4.687500e-01,
126,-2.656250e+00,-9.375000e-01,
127,-3.437500e+00,-4.687500e-01,
128,-2.968750e+00,-4.687500e-01,
129,-3.593750e+00,-9.375000e-01,
130,-3.125000e+00,-7.812500e-01,
131,-3.750000e+00,-3.125000e-01,
132,-3.281250e+00,-7.812500e-01,
133,-4.062500e+00,-3.125000e-01,
134,-3.593750e+00,-7.812500e-01,
135,-4.218750e+00,-3.125000e-01,
136,-3.750000e+00,-6.250000e-01,
137,-4.375000e+00,-1.562500e-01,
138,-3.906250e+00,-6.250000e-01,
139,-4.531250e+00,-1.562500e-01,
140,-4.062500e+00,-6.250000e-01,
141,-4.687500e+00,-1.562500e-01,
142,-4.218750e+00,-1.562500e-01,
143,-4.843750e+00,-6.250000e-01,
144,-4.375000e+00,-4.687500e-01,
145,-5.000000e+00,0.000000e+00,
146,-4.531250e+00,-4.687500e-01,
147,-5.156250e+00,0.000000e+00,
148,-5.312500e+00,0.000000e+00,
149,-4.687500e+00,-4.687500e-01,
150,-4.843750e+00,-4.687500e-01,
151,-5.468750e+00,1.562500e-01,
152,-5.156250e+00,-3.125000e-01,
153,-5.625000e+00,1.562500e-01,
154,-5.156250e+00,1.562500e-01,
155,-5.781250e+00,-3.125000e-01,
156,-5.312500e+00,1.562500e-01,
157,-5.937500e+00,-3.125000e-01,
158,-5.468750e+00,-1.562500e-01,
159,-6.093750e+00,3.125000e-01,
160,-5.625000e+00,-1.562500e-01,
161,-6.250000e+00,3.125000e-01,
162,-5.781250e+00,-1.562500e-01,
163,-6.250000e+00,3.125000e-01,
164,-5.937500e+00,-1.562500e-01,
165,-6.406250e+00,4.687500e-01,
166,-5.937500e+00,0.000000e+00,
167,-6.562500e+00,4.687500e-01,
168,-6.093750e+00,4.687500e-01,
169,-6.562500e+00,0.000000e+00,
170,-6.093750e+00,1.562500e-01,
171,-6.718750e+00,6.250000e-01,
172,-6.250000e+00,1.562500e-01,
173,-6.875000e+00,6.250000e-01,
174,-6.406250e+00,6.250000e-01,
175,-6.875000e+00,1.562500e-01,
176,-6.406250e+00,6.250000e-01,
177,-7.031250e+00,1.562500e-01,
178,-6.562500e+00,3.125000e-01,
179,-7.031250e+00,7.812500e-01,
180,-6.562500e+00,3.125000e-01,
181,-7.187500e+00,7.812500e-01,
182,-6.562500e+00,7.812500e-01,
183,-7.187500e+00,3.125000e-01,
184,-6.718750e+00,7.812500e-01,
185,-7.187500e+00,3.125000e-01,
186,-7.187500e+00,4.687500e-01,
187,-6.718750e+00,9.375000e-01,
188,-6.718750e+00,4.687500e-01,
189,-7.343750e+00,9.375000e-01,
190,-7.343750e+00,9.375000e-01,
191,-6.718750e+00,4.687500e-01,
192,-6.875000e+00,9.375000e-01,
193,-7.343750e+00,4.687500e-01,
194,-6.875000e+00,9.375000e-01,
195,-7.343750e+00,6.250000e-01,
196,-7.343750e+00,6.250000e-01,
197,-6.875000e+00,1.093750e+00,
198,-7.343750e+00,1.093750e+00,
199,-6.875000e+00,6.250000e-01,
200,-6.875000e+00,1.093750e+00,
201,-7.343750e+00,6.250000e-01,
202,-6.875000e+00,7.812500e-01,
203,-7.343750e+00,1.250000e+00,
204,-7.343750e+00,7.812500e-01,
205,-6.718750e+00,1.250000e+00,
206,-7.343750e+00,7.812500e-01,
207,-6.718750e+00,1.250000e+00,
208,-6.718750e+00,1.250000e+00,
209,-7.343750e+00,7.812500e-01,
210,-6.718750e+00,1.250000e+00,
211,-7.187500e+00,7.812500e-01,
212,-7.187500e+00,1.250000e+00,
213,-6.562500e+00,7.812500e-01,
214,-7.187500e+00,9.375000e-01,
215,-6.562500e+00,1.406250e+00,
216,-7.031250e+00,9.375000e-01,
217,-6.562500e+00,1.406250e+00,
218,-7.031250e+00,9.375000e-01,
219,-6.406250e+00,1.406250e+00,
220,-6.875000e+00,9.375000e-01,
221,-6.406250e+00,1.406250e+00,
222,-6.875000e+00,1.406250e+00,
223,-6.250000e+00,9.375000e-01,
224,-6.718750e+00,1.406250e+00,
225,-6.250000e+00,9.375000e-01,
226,-6.718750e+00,1.093750e+00,
227,-6.093750e+00,1.562500e+00,
228,-6.562500e+00,1.093750e+00,
229,-5.937500e+00,1.562500e+00,
230,-6.406250e+00,1.093750e+00,
231,-5.781250e+00,1.562500e+00,
232,-6.406250e+00,1.093750e+00,
233,-5.781250e+00,1.562500e+00,
234,-6.250000e+00,1.093750e+00,
235,-5.625000e+00,1.562500e+00,
236,-6.093750e+00,1.093750e+00,
237,-5.468750e+00,1.562500e+00,
238,-5.937500e+00,1.562500e+00,
239,-5.468750e+00,1.093750e+00,
240,-5.312500e+00,1.093750e+00,
241,-5.937500e+00,1.562500e+00,
242,-5.625000e+00,1.562500e+00,
243,-5.156250e+00,1.093750e+00,
244,-5.625000e+00,1.562500e+00,
245,-5.000000e+00,1.093750e+00,
246,-5.312500e+00,1.562500e+00,
247,-4.687500e+00,1.093750e+00,
248,-5.156250e+00,1.562500e+00,
249,-4.687500e+00,1.093750e+00,
250,-5.000000e+00,1.562500e+00,
251,-4.531250e+00,1.093750e+00,
252,-5.000000e+00,1.562500e+00,
253,-4.375000e+00,1.093750e+00,
254,-4.687500e+00,1.562500e+00,
255,-4.062500e+00,1.093750e+00,
256,-4.531250e+00,1.562500e+00,
257,-3.906250e+00,1.093750e+00,
258,-4.375000e+00,1.562500e+00,
259,-3.750000e+00,1.093750e+00,
260,-4.218750e+00,1.562500e+00,
261,-3.593750e+00,1.093750e+00,
262,-4.062500e+00,1.562500e+00,
263,-3.437500e+00,1.093750e+00,
264,-3.906250e+00,1.562500e+00,
265,-3.281250e+00,1.093750e+00,
266,-3.593750e+00,1.562500e+00,
267,-2.968750e+00,1.093750e+00,
268,-3.437500e+00,1.562500e+00,
269,-2.812500e+00,1.093750e+00,
270,-3.281250e+00,1.093750e+00,
271,-2.656250e+00,1.562500e+00,
272,-3.125000e+00,1.093750e+00,
273,-2.500000e+00,1.562500e+00,
274,-2.812500e+00,1.093750e+00,
275,-2.187500e+00,1.562500e+00,
276,-2.656250e+00,1.093750e+00,
277,-2.031250e+00,1.562500e+00,
278,-2.500000e+00,1.093750e+00,
279,-1.718750e+00,1.406250e+00,
280,-2.187500e+00,1.406250e+00,
281,-1.562500e+00,9.375000e-01,
282,-2.031250e+00,1.406250e+00,
283,-1.250000e+00,9.375000e-01,
284,-1.875000e+00,1.406250e+00,
285,-1.093750e+00,9.375000e-01,
286,-1.562500e+00,9.375000e-01,
287,-9.375000e-01,1.406250e+00,
288,-1.406250e+00,1.406250e+00,
289,-7.812500e-01,9.375000e-01,
290,-1.093750e+00,9.375000e-01,
291,-4.687500e-01,1.406250e+00,
292,-9.375000e-01,9.375000e-01,
293,-3.125000e-01,1.406250e+00,
294,-7.812500e-01,1.250000e+00,
295,0.000000e+00,7.812500e-01,
296,-4.687500e-01,1.250000e+00,
297,1.562500e-01,7.812500e-01,
298,-3.125000e-01,1.250000e+00,
299,4.687500e-01,7.812500e-01,
300,0.000000e+00,1.250000e+00,
301,6.250000e-01,7.812500e-01,
302,3.125000e-01,7.812500e-01,
303,9.375000e-01,1.250000e+00,
304,4.687500e-01,1.093750e+00,
305,1.093750e+00,6.250000e-01,
306,6.250000e-01,1.093750e+00,
307,1.250000e+00,6.250000e-01,
308,9.375000e-01,1.093750e+00,
309,1.562500e+00,6.250000e-01,
310,1.093750e+00,1.093750e+00,
311,1.718750e+00,6.250000e-01,
312,1.250000e+00,9.375000e-01,
313,1.875000e+00,6.250000e-01,
314,1.562500e+00,9.375000e-01,
315,2.187500e+00,4.687500e-01,
316,1.718750e+00,9.375000e-01,
317,2.343750e+00,4.687500e-01,
318,2.031250e+00,9.375000e-01,
319,2.656250e+00,4.687500e-01,
320,2.187500e+00,4.687500e-01,
321,2.812500e+00,9.375000e-01,
322,2.343750e+00,7.812500e-01,
323,2.968750e+00,3.125000e-01,
324,2.656250e+00,7.812500e-01,
325,3.281250e+00,3.125000e-01,
326,2.812500e+00,7.812500e-01,
327,3.437500e+00,3.125000e-01,
328,2.968750e+00,3.125000e-01,
329,3.593750e+00,7.812500e-01,
330,3.125000e+00,6.250000e-01,
331,3.750000e+00,1.562500e-01,
332,3.437500e+00,6.250000e-01,
333,4.062500e+00,1.562500e-01,
334,3.593750e+00,1.562500e-01,
335,4.218750e+00,6.250000e-01,
336,3.750000e+00,1.562500e-01,
337,4.375000e+00,6.250000e-01,
338,3.906250e+00,4.687500e-01,
339,4.687500e+00,0.000000e+00,
340,4.062500e+00,4.687500e-01,
341,4.843750e+00,0.000000e+00,
342,4.218750e+00,0.000000e+00,
343,4.843750e+00,4.687500e-01,
344,4.531250e+00,3.125000e-01,
345,5.156250e+00,-1.562500e-01,
346,4.687500e+00,3.125000e-01,
347,5.312500e+00,-1.562500e-01,
348,4.843750e+00,-1.562500e-01,
349,5.468750e+00,3.125000e-01,
350,5.000000e+00,1.562500e-01,
351,5.625000e+00,-3.125000e-01,
352,5.000000e+00,1.562500e-01,
353,5.781250e+00,-3.125000e-01,
354,5.156250e+00,-3.125000e-01,
355,5.781250e+00,1.562500e-01,
356,5.312500e+00,1.562500e-01,
357,6.093750e+00,-4.687500e-01,
358,5.468750e+00,0.000000e+00,
359,6.093750e+00,-4.687500e-01,
360,5.625000e+00,0.000000e+00,
361,6.250000e+00,-4.687500e-01,
362,5.781250e+00,0.000000e+00,
363,6.406250e+00,-6.250000e-01,
364,5.937500e+00,0.000000e+00,
365,6.562500e+00,-6.250000e-01,
366,5.937500e+00,-1.562500e-01,
367,6.562500e+00,-6.250000e-01,
368,6.093750e+00,-6.250000e-01,
369,6.718750e+00,-1.562500e-01,
370,6.718750e+00,-1.562500e-01,
371,6.093750e+00,-7.812500e-01,
372,6.250000e+00,-3.125000e-01,
373,6.875000e+00,-7.812500e-01,
374,6.406250e+00,-3.125000e-01,
375,7.031250e+00,-7.812500e-01,
376,6.406250e+00,-7.812500e-01,
377,7.031250e+00,-3.125000e-01,
378,7.031250e+00,-3.125000e-01,
379,6.562500e+00,-9.375000e-01,
380,6.562500e+00,-4.687500e-01,
381,7.187500e+00,-9.375000e-01,
382,7.187500e+00,-4.687500e-01,
383,6.562500e+00,-9.375000e-01,
384,7.187500e+00,-9.375000e-01,
385,6.562500e+00,-4.687500e-01,
386,6.718750e+00,-4.687500e-01,
387,7.343750e+00,-1.093750e+00,
388,7.343750e+00,-6.250000e-01,
389,6.718750e+00,-1.093750e+00,
390,7.343750e+00,-1.093750e+00,
391,6.718750e+00,-6.250000e-01,
392,6.875000e+00,-1.093750e+00,
393,7.343750e+00,-6.250000e-01,
394,7.343750e+00,-7.812500e-01,
395,6.718750e+00,-1.250000e+00,
396,6.875000e+00,-7.812500e-01,
397,7.343750e+00,-1.250000e+00,
398,7.343750e+00,-7.812500e-01,
399,6.875000e+00,-1.250000e+00,
400,6.875000e+00,-1.250000e+00,
401,7.343750e+00,-7.812500e-01,
402,7.343750e+00,-1.250000e+00,
403,6.718750e+00,-7.812500e-01,
404,6.875000e+00,-7.812500e-01,
405,7.343750e+00,-1.406250e+00,
406,7.343750e+00,-9.375000e-01,
407,6.718750e+00,-1.406250e+00,
408,6.718750e+00,-9.375000e-01,
409,7.343750e+00,-1.406250e+00,
410,6.718750e+00,-9.375000e-01,
411,7.187500e+00,-1.406250e+00,
412,7.187500e+00,-1.406250e+00,
413,6.718750e+00,-9.375000e-01,
414,7.187500e+00,-9.375000e-01,
415,6.562500e+00,-1.562500e+00,
416,6.562500e+00,-9.375000e-01,
417,7.187500e+00,-1.562500e+00,
418,7.031250e+00,-1.562500e+00,
419,6.406250e+00,-1.093750e+00,
420,6.406250e+00,-1.093750e+00,
421,7.031250e+00,-1.562500e+00,
422,6.875000e+00,-1.093750e+00,
423,6.250000e+00,-1.562500e+00,
424,6.718750e+00,-1.562500e+00,
425,6.250000e+00,-1.093750e+00,
426,6.718750e+00,-1.093750e+00,
427,6.093750e+00,-1.562500e+00,
428,6.093750e+00,-1.562500e+00,
429,6.718750e+00,-1.093750e+00,
430,6.562500e+00,-1.093750e+00,
431,5.937500e+00,-1.718750e+00,
432,6.406250e+00,-1.718750e+00,
433,5.781250e+00,-1.093750e+00,
434,6.250000e+00,-1.718750e+00,
435,5.625000e+00,-1.093750e+00,
436,6.250000e+00,-1.250000e+00,
437,5.468750e+00,-1.718750e+00,
438,6.093750e+00,-1.250000e+00,
439,5.312500e+00,-1.718750e+00,
440,5.937500e+00,-1.250000e+00,
441,5.312500e+00,-1.718750e+00,
442,5.781250e+00,-1.250000e+00,
443,5.156250e+00,-1.718750e+00,
444,5.625000e+00,-1.718750e+00,
445,5.000000e+00,-1.250000e+00,
446,5.468750e+00,-1.718750e+00,
447,4.843750e+00,-1.250000e+00,
448,5.312500e+00,-1.718750e+00,
449,4.687500e+00,-1.250000e+00,
450,5.156250e+00,-1.718750e+00,
451,4.531250e+00,-1.250000e+00,
452,5.000000e+00,-1.718750e+00,
453,4.218750e+00,-1.250000e+00,
454,4.843750e+00,-1.718750e+00,
455,4.218750e+00,-1.250000e+00,
456,4.687500e+00,-1.718750e+00,
457,4.062500e+00,-1.250000e+00,
458,4.531250e+00,-1.718750e+00,
459,3.750000e+00,-1.250000e+00,
460,4.218750e+00,-1.718750e+00,
461,3.593750e+00,-1.250000e+00,
462,4.062500e+00,-1.718750e+00,
463,3.437500e+00,-1.250000e+00,
464,3.906250e+00,-1.718750e+00,
465,3.281250e+00,-1.250000e+00,
466,3.593750e+00,-1.250000e+00,
467,2.968750e+00,-1.718750e+00,
468,3.437500e+00,-1.718750e+00,
469,2.812500e+00,-1.250000e+00,
470,3.281250e+00,-1.718750e+00,
471,2.656250e+00,-1.250000e+00,
472,3.125000e+00,-1.250000e+00,
473,2.500000e+00,-1.718750e+00,
474,2.968750e+00,-1.718750e+00,
475,2.187500e+00,-1.093750e+00,
476,2.656250e+00,-1.718750e+00,
477,2.031250e+00,-1.093750e+00,
478,2.500000e+00,-1.093750e+00,
479,1.718750e+00,-1.718750e+00,
480,2.187500e+00,-1.562500e+00,
481,1.562500e+00,-1.093750e+00,
482,2.031250e+00,-1.562500e+00,
483,1.406250e+00,-1.093750e+00,
484,1.875000e+00,-1.562500e+00,
485,1.093750e+00,-1.093750e+00,
486,1.562500e+00,-1.562500e+00,
487,9.375000e-01,-1.093750e+00,
488,1.406250e+00,-1.093750e+00,
489,7.812500e-01,-1.562500e+00,
490,1.250000e+00,-1.093750e+00,
491,4.687500e-01,-1.562500e+00,
492,9.375000e-01,-1.562500e+00,
493,3.125000e-01,-9.375000e-01,
494,6.250000e-01,-1.562500e+00,
495,0.000000e+00,-9.375000e-01,
496,4.687500e-01,-1.406250e+00,
497,-1.562500e-01,-9.375000e-01,
498,3.125000e-01,-1.406250e+00,
499,-4.687500e-01,-9.375000e-01,
500,0.000000e+00,-9.375000e-01,
501,-6.250000e-01,-1.406250e+00,
502,-3.125000e-01,-9.375000e-01,
503,-9.375000e-01,-1.406250e+00,
504,-4.687500e-01,-7.812500e-01,
505,-1.093750e+00,-1.406250e+00,
506,-6.250000e-01,-1.250000e+00,
507,-1.406250e+00,-7.812500e-01,
508,-9.375000e-01,-7.812500e-01,
509,-1.562500e+00,-1.250000e+00,
510,-1.093750e+00,-7.812500e-01,
511,-1.718750e+00,-1.250000e+00,
512,-1.250000e+00,-1.250000e+00,
513,-2.031250e+00,-6.250000e-01,
514,-1.562500e+00,-1.093750e+00,
515,-2.187500e+00,-6.250000e-01,
516,-1.718750e+00,-1.093750e+00,
517,-2.343750e+00,-6.250000e-01,
518,-1.875000e+00,-6.250000e-01,
519,-2.656250e+00,-1.093750e+00,
520,-2.187500e+00,-1.093750e+00,
521,-2.812500e+00,-4.687500e-01,
522,-2.343750e+00,-9.375000e-01,
523,-2.968750e+00,-4.687500e-01,
524,-2.656250e+00,-9.375000e-01,
525,-3.281250e+00,-4.687500e-01,
526,-2.812500e+00,-9.375000e-01,
527,-3.437500e+00,-4.687500e-01,
528,-2.968750e+00,-4.687500e-01,
529,-3.593750e+00,-9.375000e-01,
530,-3.125000e+00,-7.812500e-01,
531,-3.906250e+00,-3.125000e-01,
532,-3.281250e+00,-7.812500e-01,
533,-4.062500e+00,-3.125000e-01,
534,-3.593750e+00,-3.125000e-01,
535,-4.218750e+00,-7.812500e-01,
536,-3.750000e+00,-3.125000e-01,
537,-4.375000e+00,-7.812500e-01,
538,-3.906250e+00,-6.250000e-01,
539,-4.531250e+00,-1.562500e-01,
540,-4.062500e+00,-6.250000e-01,
541,-4.687500e+00,-1.562500e-01,
542,-4.218750e+00,-1.562500e-01,
543,-4.843750e+00,-6.250000e-01,
544,-4.375000e+00,-4.687500e-01,
545,-5.000000e+00,0.000000e+00,
546,-4.531250e+00,-4.687500e-01,
547,-5.156250e+00,0.000000e+00,
548,-4.687500e+00,-4.687500e-01,
549,-5.312500e+00,1.562500e-01,
550,-4.843750e+00,1.562500e-01,
551,-5.468750e+00,-4.687500e-01,
552,-5.000000e+00,-3.125000e-01,
553,-5.625000e+00,1.562500e-01,
554,-5.156250e+00,-3.125000e-01,
555,-5.781250e+00,1.562500e-01,
556,-5.312500e+00,-3.125000e-01,
557,-5.937500e+00,3.125000e-01,
558,-5.468750e+00,-1.562500e-01,
559,-6.093750e+00,3.125000e-01,
560,-5.625000e+00,-1.562500e-01,
561,-6.250000e+00,3.125000e-01,
562,-5.781250e+00,-1.562500e-01,
563,-6.406250e+00,4.687500e-01,
564,-5.937500e+00,0.000000e+00,
565,-6.406250e+00,4.687500e-01,
566,-5.937500e+00,0.000000e+00,
567,-6.562500e+00,4.687500e-01,
568,-6.093750e+00,4.687500e-01,
569,-6.562500e+00,0.000000e+00,
570,-6.250000e+00,1.562500e-01,
571,-6.718750e+00,6.250000e-01,
572,-6.718750e+00,1.562500e-01,
573,-6.250000e+00,6.250000e-01,
574,-6.406250e+00,6.250000e-01,
575,-6.875000e+00,1.562500e-01,
576,-6.406250e+00,6.250000e-01,
577,-7.031250e+00,1.562500e-01,
578,-6.562500e+00,3.125000e-01,
579,-7.031250e+00,7.812500e-01,
580,-7.031250e+00,7.812500e-01,
581,-6.562500e+00,3.125000e-01,
582,-7.187500e+00,7.812500e-01,
583,-6.562500e+00,3.125000e-01,
584,-6.718750e+00,7.812500e-01,
585,-7.187500e+00,3.125000e-01,
586,-6.718750e+00,4.687500e-01,
587,-7.187500e+00,9.375000e-01,
588,-6.718750e+00,4.687500e-01,
589,-7.343750e+00,9.375000e-01,
590,-6.875000e+00,9.375000e-01,
591,-7.343750e+00,4.687500e-01,
592,-6.875000e+00,6.250000e-01,
593,-7.343750e+00,1.093750e+00,
594,-6.875000e+00,6.250000e-01,
595,-7.343750e+00,1.093750e+00,
596,-6.875000e+00,6.250000e-01,
597,-7.343750e+00,1.093750e+00,
598,-7.343750e+00,6.250000e-01,
599,-6.875000e+00,1.093750e+00,
600,-6.875000e+00,1.093750e+00,
601,-7.343750e+00,6.250000e-01,
602,-7.343750e+00,7.812500e-01,
603,-6.718750e+00,1.250000e+00,
604,-6.875000e+00,7.812500e-01,
605,-7.343750e+00,1.250000e+00,
606,-7.343750e+00,7.812500e-01,
607,-6.718750e+00,1.250000e+00,
608,-7.343750e+00,1.250000e+00,
609,-6.718750e+00,7.812500e-01,
610,-6.718750e+00,1.250000e+00,
611,-7.187500e+00,7.812500e-01,
612,-7.187500e+00,9.375000e-01,
613,-6.562500e+00,1.250000e+00,
614,-7.187500e+00,9.375000e-01,
615,-6.562500e+00,1.406250e+00,
616,-7.031250e+00,9.375000e-01,
617,-6.562500e+00,1.406250e+00,
618,-7.031250e+00,9.375000e-01,
619,-6.406250e+00,1.406250e+00,
620,-6.875000e+00,1.406250e+00,
621,-6.406250e+00,9.375000e-01,
622,-6.406250e+00,1.406250e+00,
623,-6.875000e+00,9.375000e-01,
